<?xml version="1.0" encoding="utf-8"?>
<!-- Generator: Adobe Illustrator 22.1.0, SVG Export Plug-In . SVG Version: 6.00 Build 0)  -->
<svg version="1.1" id="Camada_1" xmlns="http://www.w3.org/2000/svg" xmlns:xlink="http://www.w3.org/1999/xlink" x="0px" y="0px"
	 viewBox="0 0 936 936" style="enable-background:new 0 0 936 936;" xml:space="preserve">
<style type="text/css">
	.st0{fill:#010101;}
	.st1{fill:#070707;}
	.st2{fill:#0B0B0B;}
	.st3{fill:#090909;}
	.st4{fill:#2B2B2B;}
	.st5{fill:#3E3E3E;}
	.st6{fill:#353535;}
	.st7{fill:#0C0C0C;}
	.st8{fill:#A9A9A9;}
	.st9{fill:#9B9B9B;}
	.st10{fill:#707070;}
	.st11{fill:#3D3D3D;}
	.st12{fill:#2F2F2F;}
	.st13{fill:#858585;}
	.st14{fill:#252525;}
	.st15{fill:#161616;}
	.st16{fill:#151515;}
	.st17{fill:#020202;}
	.st18{fill:#414141;}
	.st19{fill:#404040;}
</style>
<path class="st0" d="M331.4,687.2c-1.9,0-3.5-0.7-5-1.7c-1.1,0.2-1.7-0.3-2.2-1.1c-0.1-0.2-0.3-0.2-0.5-0.2
	c-1.6-0.1-2.7-1.1-3.8-2.1l0,0c-3-1.1-6.2-1.9-7.2-5.6c-0.8-0.8-1.5-1.6-2.3-2.3c-2-1.7-3.6-3.6-4.2-6.3c-0.5-1.3-1.1-2.5-1.6-3.8
	c-1.6-1.7-1.4-3.9-1.9-6c0.1-0.2,0.1-0.4-0.1-0.5c-1-3.8-1-7.7-0.1-11.5c0-0.4,0.1-0.9,0.1-1.3c0.4-0.7-0.2-1.7,0.6-2.3
	c0.4-2.3,0.7-4.7,2.2-6.7c0.5-0.7,0.5-1.8,1.6-2c1.3-0.2,2.3,0.5,3.2,1.3c3,3,6.3,5.8,8.4,9.6c0.2,0.7,0.1,1.5,0.1,2.3
	c-1.7,10.7,5.2,20.4,16.8,24c10.7,3.3,21.3,2.3,32,0.4c19.1-3.3,37.6-8.6,56.2-13.9c13.3-3.8,26.4-8,39.8-11.2
	c9.5-2.3,18.6-6.1,28.3-7.9c1.5-0.3,3-0.8,4.6-0.8c1.2,0.4,2.5,0.6,3.7,0.3c1.1-0.5,2.1-0.9,3.3-0.7c0.5-0.1-0.2,0.1,0.3,0
	c-0.1,0-0.2,0-0.4,0c-1.3-0.2-2.3,0.4-3.5,0.7c-1.5,0.3-2.7-0.1-3.7-1.4c-1.2-2.1-3.1-2.9-5.4-2.9c-3.6,0-7.2,0-10.8,0
	c-5.4,0.1-6.2,0.9-6.6,6.2c-0.3,4.2-1,4.8-5,5.4c-2.8,0.4-3.7-0.8-3.9-3.3c-0.1-1,0.2-1.9,0.2-2.9c0-3.5-1.3-5.2-4.8-5.4
	c-4.5-0.2-9.1-0.2-13.7,0c-2.9,0.1-4.3,1.7-4.4,4.6c-0.1,2.9,0,5.8-0.1,8.6c-0.2,4.5-0.8,5.1-5,6c-9.7,2.1-19.5,3.6-29.4,5.2
	c-6.4,1-12.8,1.7-19.2,2.5c-7.4,0.9-9.2-0.4-10.3-7.8c-0.9-6-1.8-12.1-2.5-18.1c-0.5-4.3-2-8.4-1.6-12.8c0.3-2.5,0.5-4.9,1.8-7.2
	c3-5.4,1.4-10.1-4.3-13.2c-3.6-4.2-7.9-7.6-11.4-11.9c-3.1-3.7-7.1-5-11.3-6.2c-0.5-0.6-0.6-1.3-0.1-2c0-0.5,0-1,0-1.4
	c-0.1-4.3-0.9-8.7,3.5-11.5c0.5-0.7,1.1-1.5,1.6-2.2c0.2-1.8,1.8-1.5,2.9-2.1l0,0c0.2-1.1,1.3-0.9,1.9-1.4c1.5-1.2,3.1-2.5,4.6-3.7
	c0.9-1.4,1.9-2.7,3.7-2.7c0.9-0.8,1.8-1.5,2.8-2.3c0.8-1.5,1.3-3.4,3.7-2.6c0.4-0.4,0.9-0.8,1.3-1.1c0.4-1.3,1.3-2,2.7-2
	c0.3-0.3,0.6-0.5,0.9-0.8c2.8-2.8,5-6.3,9.3-7.1c0.2-0.2,0.5-0.5,0.7-0.7c0.6-0.7,1.2-1.4,2.2-1.4c0.5-0.3,0.9-0.7,1.4-1
	c1.5-3.7,4.9-4.9,8.2-6.2c0.4-0.4,0.8-0.7,1.1-1.1c1.1-1.7,2.5-3,4.6-3.3c0.4-0.3,0.8-0.7,1.2-1c0.6-0.9,1.2-1.8,2.4-1.8
	c0.2,0,0.3-0.1,0.4-0.3c0.3-1.3,1.2-1.7,2.4-1.9c1.8-1.5,3.7-3,5.5-4.5c1.4-1.4,2.6-3.3,4.8-3.6c0.3-0.3,0.6-0.5,0.9-0.8
	c1.7-1,2.6-3.2,4.8-3.6c1-0.8,2-1.5,3.1-2.3c1.2-1.6,2.6-2.8,4.5-3.4c0.4-0.3,0.9-0.6,1.3-1c2.5-3.1,5.5-5.4,9.1-7.1
	c0.3-0.3,0.6-0.5,1-0.8c0.8-1.5,2.5-1.8,3.7-2.7l0,0c0.5-0.8,1.2-1.2,2.1-1.2c2.7,0.7,4.7-0.5,6.3-2.5c2.2-3.7,5.9-5.9,8.8-9
	c3.6-4.4,7.6-8.4,11.9-12.1c1.3-1.1,2.9-2.5,4.3,0c0,5.8,0,11.7,0,17.5c0,3.4,3.2,8.2,6.4,9.3c1.6,0.5,2.3,1.5,2.6,2.9l0,0
	c0.6,0.6,1.6,0.7,1.9,1.5c0.3,0.2,0.6,0.4,0.8,0.7c2,0.5,3.4,1.7,4.4,3.4c1,0.9,1.9,2.2,3.4,2.4c0.9,0.1,1.4,0.6,1.6,1.4
	c1.7,1.1,2.7,3.2,4.9,3.6c2.3,0.2,4.4,0.6,4.5,3.6c0.4,0.9,1.3,1.1,2.1,1.4c1.3,0.4,2.1,1.4,2.9,2.4c0.2,0.2,0.5,0.3,0.7,0.5
	c1.4,0.1,2.3,1,2.9,2.2c1.8,2.2,4.2,3.5,6.5,5c0.7,0.5,1.9,0.4,2.1,1.6c0.4,0.8,1,1.4,1.9,1.4c3.6-0.2,5.3,2.2,6.7,5l0,0
	c2.6,0.6,4.2,2.4,5.8,4.4c0.7,0.9,1.4,2,2.7,2.1c0.9,0.1,1.4,0.6,1.6,1.4c0.8,1,1.8,1.6,2.9,2.1c1.4,0.1,2.7,0.5,2.9,2.2l0,0
	c1.1,0.6,2.5,0.7,2.9,2.2c0.4,0.8,1.3,1.1,2,1.4c0.9,0.1,1.4,0.6,1.6,1.4c0.5,0.9,1.4,1,2.1,1.4c1.2,0.5,2.5,0.9,2.9,2.3
	c0.9,1.3,2.4,1.9,3.6,2.7c4.7,1.3,7.8,5.1,12,7.3c1.4,0.7,1.3,2.4,1.6,3.8c0,1,0.7,1.5,1.4,2c1.5,0.5,1.1,2,1.5,3
	c-0.1,1.2,0.4,2.3,0.9,3.4c0,3.1,1.5,6.4-0.8,9.4l0,0c-0.7,0.8,0.3,2.5-1.3,2.9c-0.3,0.5-0.6,0.9-1,1.4c-0.4,1.7-0.9,3.2-3,3.5
	c-1.6,1-3.2,2-4.8,3.1c-1.1,1.2-2.6,0.8-3.9,1.2c-2.1,0.5-4.1,1.1-6.2,1.6c-0.4,0.4-1,0.3-1.5,0.5l0,0c-0.7,1.1-1,2.4-1.2,3.7
	c-0.1,0.7-0.1,1.3-0.2,2c-0.3,1,0,2.1-0.5,3c-0.1,0.7-0.2,1.4-0.2,2.2c0.4,1.1,0.2,2-0.5,2.9c-0.9,1.8-0.9,3.7-0.9,5.7
	c-0.3,0.4,0,0.9-0.1,1.3c-1,3.6,0.9,5,4.1,5.6c3.8,0.3,7.7-0.6,11.5,1.2c1.6,0.8,3.1,1.5,4.3,2.9c1.7,2.2,4,3.7,5.9,5.6
	c1.1,1.1,2.2,2.2,2,4c-0.3,0.8-0.9,1.3-1.7,1.6c-0.5,0.1-1,0.2-1.5,0.3c-1.3,0.1-2.4-0.4-3.6-0.7c-0.2-0.1-0.5-0.2-0.7-0.2
	c-2.8,0.6-5.2,0.2-7-2.3c-4.1-2.4-10-1.4-12.9,2.2c-0.4,0.5-0.8,1.2-1.5,1.5c-1,0.6-2,1.2-3.2,0.9c-4.6,0-9,1.5-13.6,2.2
	c-18.3,2.7-36.1,7.5-54,11.8c-7.6,1.8-15.4,3.2-22.9,5.4c-1.5,0.1-2.8,0.8-4.3,1.1c-1.2,0.1-2.4,0.5-3.5,0.8c-1-0.1-1.8,0.3-2.7,0.7
	c0.9-0.4,1.7-0.8,2.8-0.7c1.4-0.4,2.8-0.7,4.2-1c1.7-0.5,3.4-0.8,5-1.4c13.3-3.2,26.7-6.2,40.4-8c14.2-1.8,28.5-3,42.9-3.7
	c1,0,1.9,0.3,2.8,0.4c3.6,1.3,4,4.2,1.1,7.6c-1.3,1.1-0.5,3-1.5,4.2c-0.5,1.3-0.1,3.2-2,3.7c-0.2,0.1-0.2,0.3-0.2,0.5
	c-1.2,3.1-2.4,6.3-5.8,7.9c-0.5,0.5-0.9,1-1.4,1.5c-0.2,2.2-2.1,2.3-3.6,3c-0.2,0.2-0.5,0.3-0.7,0.5c-2,4.2-6,5.2-10,6
	c-2.9,0.8-5.7,1.5-8.6,2.3c-0.9,0.5-1.9,0.7-2.9,0.5c-0.7,0.1-1.4,0.1-2.1,0.2c-0.9,0.5-1.9,0.3-2.8,0.3c-30.3,0-60.5,0-90.8,0
	c-0.9,0-1.9,0.2-2.8-0.3c-0.5,0-1,0-1.4,0c-0.3,0.3-0.5,0.3-0.7,0c-3.7-0.2-7.3-0.8-10.8-2.2c-0.6,0-1.1-0.1-1.5-0.6
	c-0.2-0.2-0.4-0.2-0.6-0.2c-2.1,0.3-3.8-0.6-5.4-1.8c-1.9-1.5-4-1.6-6-0.6c-2.2,1.1-4.5,1.3-6.9,1c-0.4,0.1-0.8,0.1-1.2,0.2
	c-0.4,0.5-1.1,0.2-1.6,0.5c-5.2,1-10.4,2-15.7,3c-1.2,0.7-2.6-0.1-3.8,0.6c-0.4,0-0.8,0.1-1.2,0.1c-7.8,1.8-15.7,1.9-23.6,0.5l0,0
	c-1.2-0.7-2.6,0.2-3.7-0.6c-1.2-0.3-2.5,0.1-3.6-0.7C332.8,687.8,332.1,687.6,331.4,687.2z"/>
<path class="st0" d="M483.9,466.8c-4.8,2.7-7.8,7.3-11.9,10.8c-1.1,0.9-2.1,1.9-3.1,2.9c-1.8,0.7-3.2,0.1-4.4-1.2
	c-3.9-4.2-8.4-7.9-11.2-13.1c0-0.6,0.2-1,0.4-1.5c0-1.2,0-2.4,0-3.6c-0.2-0.1-0.5-0.3-0.5-0.5c-1.2-6.3-4.8-11.3-8.5-16.3
	c-3.2-0.8-5.5-3.5-8.8-4.1c-3.1-0.3-6.3-0.6-9.4-0.9c-4.1-1.5-6.8-4.9-9.7-7.8c-5.7-5.7-11.1-11.5-17.1-16.9c-0.6-0.6-1.1-1.2-1.5-2
	c-1.4-2.7-0.4-4.4,2.5-4.1c6.8,0.7,13.6,0.3,20.5,0.3c6.9,0.1,13.9,0,20.8,0.1c1.9,0,3.6-0.3,4.9-1.6c1-1.4,1-2.9,0.4-4.3
	c-1.5-3.6-0.1-6.1,2.8-8.1c0.3-0.5,0.5-1.1,0.8-1.6c0.1-0.5-0.2-1.1,0-1.4c2.1-2.5,2-5.7,2.9-8.5c0-1.4-0.1-2.9-0.1-4.3
	c-0.7-1.2,0.4-1.9,0.7-2.9c0-0.2,0.1-0.5,0.1-0.7c0.9-2.5,1.5-5.2,4.2-6.5c-1.2-1.7-2.4-3.4-3.6-5c-1.6-0.9-0.6-2.7-1.3-3.9
	c-1.2-1.4,0.7-4.8-3-4.6c-1.2,0.4-2.4,0.5-3.6-0.2c-4.8-0.2-9.3-1.5-13.6-3.6c-1.7,0-3.1-0.3-3.6-2.2l0,0c-1.4-0.5-1.8-1.7-2.2-2.9
	l0,0c-0.6-0.6-1.4-1.2-1.3-2.2c-0.6-1.2-1.2-2.3-1.7-3.5c-0.7-0.9-0.9-1.9-1.3-2.9l0,0c-1.9-0.7-1.6-2.6-2.2-4.1
	c-1.1-1.6-1.7-3.5-2.1-5.4c0.9-0.3,1.9-0.2,2.8-0.2c31.1,0,62.2,0,93.3,0c1,0,2.2-0.3,3.1,0.4c-0.1,0.4-0.2,0.9-0.3,1.3
	c0.5,1.3-0.4,1.7-1.2,2.2c-0.7,0.3-0.7,0.9-0.6,1.4c-0.1,2.9-2.1,5-3.5,7.2c0.3,1.6-1.8,2-1.8,3.5c-0.6,4.6-2.2,6.3-7,7.3
	c-3.1,1-6.2,2-9.3,3c-2.3,1.1-4.6,2.6-7.2,0.8c-0.5,0-1,0-1.4,0c-1.4,0.7-1.4,2.3-2.1,3.5c-0.1,0.4-0.1,0.9-0.2,1.3
	c-0.1,1.7,0.1,3.6-1.9,4.5c-0.5,1.9-3.5,2.5-2.6,5.1c1,0.1,1.5,0.7,1.5,1.6c0.8,1.6,1.6,3.2,2.4,4.7c1.2,2.6,2,5.1,0.4,7.8
	c-0.8,0.6-0.5,1.4-0.6,2.2c-0.1,1-0.2,2,0,3c0.2,0.7,0.7,1.2,1.4,1.4c2.1,1.1,3.5,2.7,3.6,5.2c0.5,1.4,1.1,2.8,1.6,4.2
	c0.1,1.7,1.6,3.2,0.6,5c0,0.5-0.1,0.9-0.1,1.4c1.9,1.8,4.3,1.4,6.4,1.4c12,0.1,23.9,0,35.9,0.1c1.7,0,3.2-0.8,4.9-0.7
	c1.1,0.2,1.8,1,2.4,1.8c1,1.7,0.1,2.9-1,4.1c-7.6,7.8-15.4,15.3-23,23.1c-2.9,2.9-6.3,2.7-9.8,3.2l0.1,0.2c-1.2,0.6-2.6-0.1-3.9,0.5
	c-1-0.2-1.9,0.2-2.6,0.8c-1.3,2.8-4.4,2.4-6.7,3.5c-0.2,0-0.4,0.1-0.5,0.3c-0.4,3.5-3.7,4.8-5.7,7c-1.1,1.2-1.6,2.7-1.7,4.3
	c0.1,0.6-0.2,1-0.4,1.5c0,0.4-0.1,0.9-0.1,1.3C483.7,461.3,485.4,464.2,483.9,466.8z"/>
<path class="st0" d="M589.2,641.6c0.2-0.5,0.5-0.9,0.7-1.4c1.6-1.8,0.4-3-0.8-4.3c-2-2.1-4.1-4-6-6.2c-1.8-2.2-1.5-3.1,1.3-4.3
	c1.2-0.5,2.4-0.9,3.7-0.6c0.4,0.1,0.7,0.3,0.9,0.5c2.3,1,2.8,3.4,4.3,5.1c2.4,2.9,3.1,2.9,6.1,0.8c1.4-1,2.8-2.2,4.8-1.8
	c0.3,0.2,0.5,0.4,0.7,0.7c0.9,0.3,1.7,1,2.8,0.9c1.9,1.1,4.8,0,5.8,2.9c1.4,0.8,2.8,1.5,4.3,2.3c2.8,0.9,5.3,2.1,6.4,5.1
	c1.4,1.8,2.9,3.7,4.3,5.5c1.2,0.2,1.3,1.2,1.5,2.2l0,0c0.8,0.8,1.5,1.7,1.4,2.9c0.5,2.2,1.1,4.3,1.6,6.5c0.3,1.2,1.4,2.2,0.6,3.6
	c0,0.7,0,1.4,0,2.2c0.8,1.6-0.6,2.8-0.7,4.3c-0.5,1.1-1,2.3-0.8,3.6c-0.8,2.2,0.3,5.3-2.8,6.6l0,0c-0.3,0.8-0.5,1.7-1.3,2.1
	c-0.1,0.2-0.2,0.4-0.3,0.7c-0.4,1.5-1.3,2.7-2.6,3.7c-0.6,0.7-1.1,1.3-1.7,2c-0.6,3.3-2.8,5-5.8,5.9c-0.2,0.1-0.4,0.3-0.6,0.4
	c-0.7,1.1-1.8,1.8-2.9,2.5l0,0c-0.3,1.6-1.8,1.7-2.9,2.2c-0.8,0.2-1.7,0.5-2.1,1.4c-0.9,1.8-2.4,2.8-4.4,2.9c-1.7,0.9-3.5,1.6-4.9,3
	c-0.8,0.8-2,1-3,1.4l-0.3,0l-0.3,0.2c-0.4,1.2-1.4,1-2.3,1.1l0.1,0c-0.7,1.5-2.4,1-3.5,1.7c-0.7,0.3-1.4,0.6-2.2,0.9
	c-0.7,1.2-2,0.9-3,1.2l-0.3,0l-0.3,0.2c-2.6,2.8-6.2,2.7-9.5,3.5l-0.3,0l-0.3,0.1c-0.5,0.5-1.1,0.3-1.7,0.5
	c-2.6,0.8-5.1,1.5-7.7,2.3c-0.8,1.1-2,0.2-2.9,0.7l-0.3,0l-0.3,0.1c-0.6,0.7-1.6-0.1-2.2,0.6c-0.5,0.1-0.9,0.1-1.4,0.2
	c-0.5,0.5-1.1,0.2-1.7,0.5c-2.6,0.5-5.1,1-7.7,1.5c-1.6,1.5-3.5,1.7-5.6,1.9c-4,0.4-7.9,0.8-11.9,0.9c-0.9,0.1-1.8,0.1-2.7,0.2
	c-1.3,0.7-2.7-0.1-4,0.6c-1.3,0.1-2.6,0.1-3.9,0.2c-1.9,0-3.8,1.1-5.8,0.6c-1,0-1.9,0.1-2.9,0.1c-2,0.6-4.2-0.2-6.2,0.6
	c-3.2,0.1-6.5,0.1-9.7,0.2c-1.1,0.4-2.2,0.2-3.3,0.2c-1.6-1.1-0.7-2.3,0.1-3.3c3.9-4.4,7.7-8.9,12.8-12.1c3-0.7,6.1-0.5,9.2-0.8
	c1,0,1.9-0.1,2.9-0.1c1.3-0.5,2.7,0,4-0.5c0.8,0,1.6-0.1,2.5-0.1c1.3-0.6,2.7,0.1,4-0.6c2.6,0.3,5.1-0.4,7.5-0.9
	c0.6-0.8,1.6-0.1,2.3-0.5c0.2,0.1,0.4,0.1,0.6-0.1c1.1-0.7,2.5-0.2,3.7-0.7c2,0.2,3.8-0.6,5.7-0.9c0.5-0.5,1.2-0.2,1.7-0.4
	c2.9,0,5.6-1.2,8.4-1.7c0.5-0.4,1.1-0.2,1.6-0.5c0.8,0.1,1.4-0.3,2-0.7c1.4-1.7,3.4-1.5,5.3-1.4c1.3,0.3,2.2-0.8,3.4-0.9
	c1.5-1.4,3.5-1.5,5.4-2c0.2,0.1,0.3,0,0.4-0.1c3.7-2.6,8-4,12.3-5c1.4-0.8,2.8-1.5,4.2-2.3c1.5-2.1,3.6-2.9,6-3.4
	c0.2,0.1,0.3,0,0.4-0.2c1.6-3.2,4.2-5.1,7.7-5.7c0.3-0.3,0.6-0.6,0.9-0.8c0.5-1.9,1.6-3.2,3.2-4.5c2.1-1.7,3-4.6,5.5-6.1
	c0.2-0.1,0.2-0.2,0.1-0.4c0.5-3.5,2.4-6.8,1.3-10.4c-0.7-0.8-0.6-1.9-0.8-2.9c-0.5-0.4-0.3-1-0.6-1.5l0,0c-0.6-0.2-0.6-0.8-0.9-1.2
	c-0.7-0.8-1.4-1.6-2.2-2.4c-1.7-0.4-2.3-2-3.5-3.1l0.1,0.1c-5.1-2.7-10.9-3.6-16-6.3c-0.2,0-0.5-0.1-0.7-0.1
	c-1.1,0.4-1.9-0.3-2.9-0.6C590.2,641.8,589.7,641.7,589.2,641.6z"/>
<path class="st0" d="M397.7,733.2c-0.7-0.3-1.4-0.5-2.2-0.8c-0.9-0.2-1.6-0.6-2.2-1.3c-2.7,0.9-4.9,3-7.9,2.8
	c-1.4,0.7-2.4-0.2-3.6-0.7c-2.3-1.2-4.5-0.9-6.5,0.7c-4.7,2.4-9.6,0.7-14.4,0.7c-0.7,0-1.4,0.1-2.2,0.1c-1.4,0.7-2.4-0.2-3.6-0.7
	c-0.2-0.1-0.5-0.1-0.7-0.2c-2.2,0.4-4,2.6-6.5,1.4l-0.3-0.1l-0.3,0.1c-2.3,1.4-4.3,1-5.8-1.3c-2.6-2-5.4-0.1-8-0.1
	c-1.9,0-3.8,0.1-5.6,0c-0.3,0.3-0.5,0.3-0.7-0.1c-1.5,0.3-2.7-0.6-3.9-1.4c-0.7-0.7-1.9-0.9-1.7-2.3c-0.1-0.5-0.2-0.9-0.4-1.4
	c0.2-2.9-2-5.8,0.1-8.6c0.7-1.1,1.6-2,2.9-2.3c0.9-1.6,2.6-0.5,3.8-1.2c2.4,0,4.7-0.1,7.1-0.1c1.2-1.1,2.3,1.2,3.5,0
	c1-0.7,2-1.5,3-2.2c3.9-2.2,7.9-2.1,11.8,0.1c0.2,0,0.4,0,0.5-0.2c2.3-3.7,6-2.1,8.9-1.8c1.8,0.2,3.7,0.6,5.5,0.5
	c0.2,0.1,0.5,0,0.7-0.1c1.7-1.8,3.3-1.4,5-0.1c1,0.3,1.7,1.1,2.9,0.9c1.2,0.7,2.2,0.4,3-0.6c0.6-0.7,1.2-1,2.1-0.7
	c0.3,0,0.5-0.1,0.6-0.3c2-0.9,4.3-0.8,6.2-0.4c3.2,0.7,6.1,0.6,9.1-0.2c1.6,0,3.2,0,4.8,0c3.6,2.1,6.7-0.5,10.1-0.8c1.7,0,3.4,0,5,0
	c2.4,0.1,4.8,1.1,7.2,0c1-0.3,1.9-0.6,2.9-0.8c0.5-0.3,1-0.4,1.5-0.4c8.2,3.8,13.4,11.1,19.8,17c1,0.9,1.5,2.2,1,3.6
	c-1.9,1.8-4,2.4-6.5,1.6c-1.2-0.7-2.7,0.5-3.8-0.8c-1.8-1.7-3.8,0.5-5.7-0.2c-1.9,1.3-4.1,0.7-6.1,0.9c-2.4,0.1-4.5-1.7-7-0.7
	c-0.2,0-0.4,0-0.5,0.2c-0.8,0.9-1.6,1.6-2.9,1.3c-1.4,0-2.9,0-4.3,0.1c-2.4,0.3-4.1-2.1-6.5-1.5c-1.2,1.2-2.8,1.7-4.3,2.2
	C401,733.9,399.3,733.7,397.7,733.2z"/>
<path class="st0" d="M449.6,729.7c-6.3-7-13-13.4-20.2-19.5c0.6-0.8,1.4-0.6,2.1-0.3c2.2,0.2,4,2.4,6.5,1.5c0.8-0.9,2-0.8,2.9-1.3
	l0,0c1.9-1.2,3.8-0.7,5.7-0.1c0.2,0.1,0.4,0.2,0.7,0.1c2.2-0.4,3.5,2.8,5.9,1.5c1.2-0.5,2.3-1,3.5-1.5c1.9-0.7,3.8-1.1,5.8,0
	c0.1,0.2,0.3,0.2,0.4,0.1c0.6,0.2,1.3,0,1.7,0.7l0,0c1.7,1,2.9-1,4.5-0.7c1.2-0.3,2.3-0.6,3.5-0.9c1.2-0.5,2.4-0.3,3.6,0
	c0.9,0.3,1.9,0.6,2.8,0.9c0.8,0.5,2,0.2,2.3,1.4l0,0c1.6,0.7,3.4-0.1,5,0.7c1.2,0,2.4,0,3.6-0.1c3.9-1.1,7.9,0.2,11.8-0.5
	c0.4,0,0.8-0.1,1.2-0.1c1.3-0.9,2.3-0.7,2.9,0.8c-2.6,4.5-7,7.3-10.3,11.2c-0.8,1-1.8,1.9-2.7,2.9c-1.2,1.2-2.8,0.1-4,0.9
	c-2-0.5-4-0.2-6.1,0.1c-0.8,2.1-2.7,2.3-4.4,2.7l0.1,0c-0.8,0.8-2,0.3-2.9,0.8c-1.8-0.6-3.9,0.7-5.5-0.7c-1.5-0.2-3.1,0.3-4.6-0.1
	c-3.3,1.2-6.5,2.5-10,0.7C453.4,730.4,451.2,731.5,449.6,729.7z"/>
<path class="st0" d="M448,408.4c-3,1.3-6.2,1.5-9.5,1.5c-13.1,0-26.3,0-40.1,0c2.6,4.1,6.3,6.6,9.2,9.7c5.5,5.8,11.3,11.3,17,17
	c0.7,0.7,1.2,1.8,1.8,2.7c-4.5,0-9.1,0.8-13.6-0.7c-1.4,0.3-2.6-0.3-3.7-1.2c-1.4-0.1-2.5-0.9-3.7-1.5c-0.8-0.3-1.8-0.2-2.1-1.3
	c-2.8-2-5.9-3.8-8-6.6c-1.8-0.9-2.5-2.7-3.5-4.2c-0.5-0.7-1-1.5-1.5-2.2c-2.5-1.9-4.3-4.4-5.6-7.3l0,0c-0.9-0.5-2-0.7-2.7-1.6
	c-0.9-1.1-0.9-2.4-0.6-3.7c0.3-1.2,1.3-1.5,2.5-1.3c3.1,0.4,6.3-0.2,9.4,0.9c0.9,0,1.8,0,2.7,0.1c2.6-1.1,5.3-0.8,8-0.8
	c12,0,23.9,0,35.9,0c1.3,0,2.6-0.1,3.8,0.7c0.2,0,0.5,0,0.7,0C445.7,407.7,446.8,407.3,448,408.4z"/>
<path class="st0" d="M478.4,299.7c-0.2,0.2-0.2,0.4-0.2,0.6c-0.4,1.1,0.6,2.3-0.4,3.3c-0.2,0.3-0.4,0.5-0.6,0.8
	c-1.3,4-3.6,7.2-7.6,8.9l0,0c-0.5,0.8-0.7,2-2.1,1.6c-0.4-0.1-0.7,0.1-0.8,0.5c-0.4,0.6-0.9,0.5-1.4,0c7.1-13.2,9.4-26.8,3.5-41.2
	c-3-7.4-5.9-14.8-7.3-22.8c-0.2-2.2-0.9-4.3-0.6-6.5c0-0.9,0.1-1.8,0.1-2.6c0.1-1.5-0.2-3.1,0.5-4.6c0-0.4,0.1-0.9,0.1-1.3
	c0.8-1.1-0.3-2.6,0.8-3.7l0,0.1c0.4-0.8,0.2-1.5,0.2-2.3c-0.1-1.3,0.3-2.3,1.9-2l0,0c0.9,0.6,0.3,1.6,0.6,2.4
	c-0.1,2.6,0.3,5.1,1,7.7c2.3,1.5,0.6,3.9,1.3,5.8c0,0.2,0.1,0.5,0.1,0.7c1.3,1.2,1.6,2.7,1.4,4.3c0.7,1.9,1.5,3.8,2.2,5.8
	c1.1,0.8,1.2,1.9,1.3,3.1c-0.1,1.6,0.7,2.9,1.7,4.1c1.1,0.4,1.4,1.2,1.2,2.2c0.9,2.4,1.9,4.8,2.8,7.2c2.4,1.7,2,4.3,2.3,6.7
	c0.1,0.4,0.1,0.8,0.2,1.1c1.5,4.1,1,8.2,0,12.2c-0.1,0.5-0.1,0.9-0.2,1.4C480.6,295.7,479.3,297.6,478.4,299.7z"/>
<path class="st0" d="M500.6,283.5c0,1.5,0,2.9,0,4.4c-0.6,1.2,0,2.6-0.5,3.9c0,0.5-0.1,1-0.1,1.4c0,1.2,0.1,2.5-0.8,3.6l0-0.1
	c-0.2,1.1,0.4,2.5-1.2,3c-0.8,0.7-1,1.6-1,2.7c-0.3,1.5,0.2,3.3-1.9,3.8c-0.6,0.9-1.3,1.8-1.9,2.7c0.7,2.2-1.5,2.2-2.5,3.1l0,0
	c-0.7,0.8-1.3,1.6-2.3,2.1c-0.5,0.5-1.1,0.9-1.6,1.4c-0.6,0.7-1.2,0.7-1.9,0.1c0-0.2,0-0.4,0-0.7c-0.1-1.5,0.3-3,0.7-4.5
	c1.5-1.4,2.3-3.3,3.5-4.9c0.5-1.9,1-3.8,1.5-5.7c0.4-0.9-0.2-2.1,0.6-2.9c0.5-1.2-0.9-2.5,0.1-3.7c1.3-1.9-1.1-3.8,0.1-5.7
	c-0.1-0.7-0.1-1.4-0.2-2.1c-1.1-1.9-1.1-3.9-1.3-6c0.1-0.2,0.1-0.3-0.1-0.5c-0.8-1.1-1.3-2.3-1.3-3.7l0,0c-1.2-0.9-1.2-2.3-1.3-3.6
	c0-0.3-0.1-0.5-0.3-0.6c-1.1-0.8-0.8-2.3-1.4-3.4c-1-3.2-2-6.4-3-9.6c-1.5-1.4-2.2-3.1-1.2-5.1c-0.1-0.5-0.1-0.9-0.2-1.4
	c-0.4-2.8-1.5-5.6-0.5-8.5l0,0c0.9-1.4-0.7-3.1,0.5-4.4c0-0.5,0.1-1,0.1-1.4c0.3-0.3,0.6-0.4,0.9-0.5c2.5,0.3,2.6,2.7,3.8,4.1
	c2,1.3,1.6,3.3,1.6,5.3c0.2,2.5,1.1,4.8,2.4,6.9c2.8,1.5,2,4.4,2.7,6.8c0.8,3.2,2.7,6,3.9,9c1.6,0.5,0.5,2.1,1.3,3
	c0.8,2.6,1.5,5.2,2.3,7.9C500.6,280.8,499.9,282.2,500.6,283.5z"/>
<path class="st0" d="M446.4,314.1c0.1-1.4,1.2-2.3,1.7-3.5c0.4-1.3,0.2-2.7,1.4-3.7c0.3-0.9,0.6-1.7,0.9-2.6
	c0.3-1.1-0.5-2.6,1.1-3.2c0.1-0.7,0.2-1.4,0.2-2.1c0.4-0.9-0.4-2.1,0.6-3c-1-1.4,0.7-2.7,0.2-4.1c0.4-1.5-0.7-3-0.1-4.5
	c-0.5-2.6-1-5.3-1.5-7.9c-0.5-0.4-0.6-0.9-0.5-1.5c-0.3-0.9-0.6-1.9-0.9-2.8c-2-2.1-2.9-4.6-2.7-7.5c-0.6-0.5-0.8-1.1-0.9-1.9
	c-1.1-1.1-1.3-2.4-1.3-3.9c-2-3.2-1.5-7.1-2.4-10.5c-0.3-0.7-0.2-1.4-0.2-2.1c0.5-1.4,0.7-2.9,1.7-4.1c1.3-1.7,2.7-2.2,4.2-0.2
	c0.8,2.4,1.6,4.8,2.5,7.2c0.3,0.2,0.4,0.5,0.4,0.8c1.4,4.4,3.4,8.7,5.4,12.9c6.3,13.2,7.3,26.4,0,39.5c-1.4,2.6-3.5,4.8-5.2,7.2
	c-0.4,2.4-2.3,3.1-4.3,3.7c-0.2,0.1-0.5,0.1-0.7,0.2C444.7,315.5,444.7,315.5,446.4,314.1z"/>
<path class="st0" d="M506.3,439.3c0.5-0.4,1.1-1.1,1.4-1c3.6,1.1,5.1-1.7,7.1-3.6c8.3-8.2,16.8-16.3,24.7-24.9
	c0.3-0.7,0.7-1.4,1.5-1.4c5.1-0.1,10.2-1.1,15.2,0.6c0.9,2.4-0.3,3.7-2.5,4.3c-0.2,0.3-0.4,0.6-0.6,0.9c-0.2,0.7-0.4,1.3-1.2,1.6
	c-1.7,2.8-4.7,4.6-5.9,7.8c-0.3,0.7-0.5,1.3-1.3,1.6l-0.1,0.1c-0.6,1-0.9,2.3-2.2,2.8l0,0c-1.7,1.7-2.5,4.3-5.2,4.9l0,0
	c-0.6,1.8-2.3,1.6-3.6,2.2c-0.4,0.3-0.9,0.6-1.3,0.8c-0.8,0.9-2,0.9-3,1.3c-0.2,0-0.4,0-0.6,0.2c-0.4,0.5-1.1,0.2-1.5,0.6l-0.4,0
	l-0.3,0.1c-0.6,0.7-1.6,0-2.3,0.6C518.3,439.8,512.3,439.3,506.3,439.3z"/>
<path class="st0" d="M454,466c5.3,4.5,9.3,10.3,15,14.4c-2.5,3.3-5.6,5.8-8.6,8.6c-1.2-0.1-2.1,0.6-3,1.1c-1.3,0.7-2.5,1.1-3.6-0.4
	c0-1.2,0-2.4,0-3.6C453.5,479.5,452.9,472.7,454,466z"/>
<path class="st1" d="M447.9,245c-3.2-0.3-3.6,3.1-5.6,4.3c-0.5-0.6-1.1-1.2-0.8-2.2c0-1.2,0-2.4,0-3.6c-0.9-2.3,0.4-4.3,0.7-6.5
	c0.2-3,0.9-5.9,2.3-8.6c1.3-0.2,1.2,0.7,1.1,1.6c-0.1,0.9-0.3,1.9,0.2,2.8l0-0.1c1.4,3.5,1.7,7.2,2,10.9
	C447.8,244.1,447.9,244.6,447.9,245z"/>
<path class="st2" d="M485.4,240.7c-1.5-1-2.7-2.3-3.6-3.8c-0.2-1.4-1-2.8,0.2-4l0,0.1c0.7-1.4-0.5-3.4,1.4-4.3l-0.1,0.1
	c1-0.7,1.2,0.1,1.3,0.8c0,0.4,0.1,0.8,0.1,1.2c2.6,2.6,1.7,5.7,1.2,8.7c0.1,0.4,0.1,0.9,0.2,1.3C485.9,241,485.7,241,485.4,240.7z"
	/>
<path class="st3" d="M453.7,489.8c2.2,0,4.1-3.6,6.6-0.7c-1.1,1.2-2.1,2.5-3.4,3.5c-0.9,0.8-1.5,2.4-3,2c-1.7-0.5-0.2-2.4-1-3.4
	c-0.1-0.2-0.2-0.3-0.1-0.4c0-0.1,0.1-0.2,0.1-0.2C453.2,490.3,453.5,490,453.7,489.8z"/>
<path class="st4" d="M576.9,637.4c1.8,1.9,4,2.9,6.5,3.5c-0.5,0.1-0.9,0.2-1.4,0.2c-0.4,0.5-0.9,0.8-1.4,0.9
	c-0.6,0.1-1.2,0.3-1.8,0.4c-0.8,0.2-1.6,0.6-2.4,0.5c-3.3-1-6.7-0.4-10-1.4c-1-2.8,1.2-2.6,2.7-2.5c2.2,0,4.3,0.7,6.4-0.6
	C575.9,638.1,576.4,637.7,576.9,637.4z"/>
<path class="st5" d="M350.6,572.4c-0.1-0.7-0.1-1.3-0.2-2c4.1-0.8,7.3,0.5,10.2,3.6c4.3,4.6,8.8,9,13.2,13.4
	c-0.1,0.2-0.2,0.3-0.3,0.5c-1.6,1.3-3,0.5-4.5-0.2c-1.1-0.5-2.3-0.8-3.5-1.2c-0.7-0.2-1.5-0.3-1.9-1c-3-5-7-8.9-12.5-10.9
	c-0.5-0.3-0.8-0.7-0.9-1.3C350.2,573,350.4,572.7,350.6,572.4z"/>
<path class="st5" d="M376.5,608.5c-0.2-0.5-0.5-1-0.7-1.5c-0.5-0.3-0.8-0.7-1-1.3c-0.5-1.2-0.2-2.5-0.7-3.7c0-0.5,0-1.1,0.1-1.6
	c2.1-2.8,1.3-5.1-1-7.3c-0.7-1.9-1.5-3.7,0.3-5.4c0.1-0.1,0.2-0.2,0.3-0.3c1.3,1.2,2.6,2.5,3.8,3.7c3.7,3.8,4,7.7,0.6,11.8
	C376.9,604.6,376.6,606.5,376.5,608.5z"/>
<path class="st5" d="M308,621.9c0-0.2,0-0.4,0-0.6c-0.2-1.8-0.3-3.6,2.1-4.1c4.8,3,8.8,6.8,11.3,12c0.1,1-0.4,1.8-0.9,2.5
	c-0.4,0.4-0.9,0.6-1.5,0.5C314.7,629.4,312,624.9,308,621.9z"/>
<path class="st6" d="M578.2,625c0,0.5,0,1,0,1.5c-1.8,0.9-3.6,0.4-5.4,0.2c-2.8-0.4-5.3,0.2-7.5,1.8c-0.7,0-1.5,0-2.2,0.1
	C567.4,623.1,572.4,621.9,578.2,625z"/>
<path class="st7" d="M417.9,528.3c0.9,0.1,1.8,0.3,1.6,1.4c-0.2,0.9-0.8,1.8-1.9,1.7c-0.8-0.1-1.6-0.8-1.6-1.6
	C415.9,528.6,416.9,528.3,417.9,528.3z"/>
<path class="st7" d="M390.7,558.2c-0.2,1-0.9,1.4-1.7,1.5c-0.9,0.1-1.8-0.2-1.9-1.2c-0.1-1,0.8-1.4,1.7-1.4
	C389.6,557.1,390.5,557.1,390.7,558.2z"/>
<path class="st8" d="M498.2,626.3c0.3-1,0.6-2,0.9-2.9c0.4,1.5,1.5,1.6,2.8,1.4c0.2,0.2,0.3,0.4,0.2,0.5c-0.1,0.2-0.2,0.3-0.2,0.3
	C500.6,625.9,499.4,626.1,498.2,626.3z"/>
<path class="st9" d="M461.5,651.6c0,0.2,0,0.4,0,0.6c-1.1,0.1-2.1,1.2-3.7,0.5C459.2,652.1,460.2,651.4,461.5,651.6z"/>
<path class="st10" d="M501.8,625.6c0-0.3,0-0.5,0-0.8c1.1-0.9,2.3-0.6,3.6-0.5c0.2,0.2,0.3,0.3,0.2,0.4c-0.1,0.1-0.2,0.1-0.3,0.1
	C504.1,625.1,503,625.4,501.8,625.6z"/>
<path class="st11" d="M454.4,653.9c-0.2,0.2-0.3,0.4-0.5,0.4c-0.2,0.1-0.6,0-0.6-0.1c-0.2-0.5,0.2-0.5,0.5-0.5
	C454,653.7,454.2,653.8,454.4,653.9z"/>
<path class="st12" d="M504.1,637.3c0-0.2,0.1-0.3,0.1-0.5c0.4-0.4,0.9-0.8,1.6-0.6C505.7,637.3,504.6,636.9,504.1,637.3z"/>
<path class="st13" d="M558,396c0,0.6-0.1,1.2-0.7,1.5c-5.5-1.6-11-1.3-16.6-0.1c-0.5-0.4-1-0.8-1.5-1.2
	C545.5,396.1,551.8,396,558,396z"/>
<path class="st14" d="M599.3,628.8c-1.2,2.1-2.6,1.9-3.8,0.1c-0.6-0.8,0.5-0.7,1-0.9c0.9,0.1,1.8,0.2,2.7,0.3
	C599.2,628.4,599.2,628.6,599.3,628.8z"/>
<path class="st15" d="M566.1,640.9c-0.2,0.1-0.5,0.2-0.7,0.2c-0.5-0.1-0.9-0.1-1.4-0.2c3.5-5.6,8.4-2.4,12.9-2
	c-1,1.7-2.6,1.2-4.1,1.3C570.6,640.4,568.3,639.9,566.1,640.9z"/>
<path class="st1" d="M363,597.2c-6.1-1.1-9.9-5.1-13-10.1c-0.2-0.3-0.1-0.5,0.2-0.7c2.7-0.4,4.8,0.6,6.6,2.6c1.9,2.1,4,4,5.9,6
	C363.3,595.6,364.5,596.2,363,597.2z"/>
<path class="st16" d="M374,612.9c-0.3-1-0.5-2-0.8-3c-0.1-0.4-0.1-0.8-0.2-1.3c0-1,0-1.9,0-2.9C376.3,608.6,376.5,609.9,374,612.9z"
	/>
<path class="st17" d="M332,628.7c-5.7,2.9-9.7,7.6-13,12.9c-2.5-2.7-5-5.3-7.6-8c-1-1-2-2-2.4-3.5c3.1-5.2,7.8-8.9,12.3-12.6
	c0.2-0.6,0.7-0.8,1.2-1c4.3,2.9,7.7,6.7,10.1,11.3C332.6,628.2,332.3,628.5,332,628.7z"/>
<path class="st17" d="M350.8,621.5c-0.7,0-1.4,0.1-2,0.1c-1.3-0.6-1.8-1.8-1.3-3c1.3-3.1,0.8-6-0.1-9.1c-0.3-0.8-0.2-1.6,0.3-2.4
	c0.3-0.3,0.7-0.4,1.1-0.4c2,0.1,4-0.3,5.9,0.2c5.3,0.9,9.1,3.8,11.5,8.6c0.3,2.2-1.1,2.5-2.8,2.7c-2.3,0.3-4.8,0.2-6.7,2.1
	C354.9,621.9,352.7,620.9,350.8,621.5z"/>
<path class="st18" d="M357.8,607.6c1.2-2.3,3.5-2.7,5.7-3c1.4-0.2,2.9-0.1,3.8-1.4c0.2,0,0.4,0.1,0.6,0.1c0.2,0.5,0.5,1,0.7,1.4
	c0.4,1.8-0.6,2.2-2.2,2.3c-2.6,0.1-5.2,0.5-7.9,0.7C358.2,608,358,607.9,357.8,607.6z"/>
<path class="st19" d="M349.2,594.7c0-0.2,0-0.4,0.1-0.6c2.2,0,4.5-0.7,6.6,0.5C353.6,594.6,351.4,594.7,349.2,594.7z"/>
</svg>
