<?xml version="1.0" encoding="utf-8"?>
<!-- Generator: Adobe Illustrator 22.1.0, SVG Export Plug-In . SVG Version: 6.00 Build 0)  -->
<svg version="1.1" id="Camada_1" xmlns="http://www.w3.org/2000/svg" xmlns:xlink="http://www.w3.org/1999/xlink" x="0px" y="0px"
	 viewBox="0 0 170 170" style="enable-background:new 0 0 170 170;" xml:space="preserve">
<style type="text/css">
	.st0{fill:#FCFCFC;}
</style>
<g>
	<path class="st0" d="M66.4,169.5c-0.1-1.3-1.2-1.1-2-1.3c-1.1-2,0.8-2.7,1.7-3.9c4.5-6,10.8-5.7,17.2-4.7c2.6,1.3,0.9,2.7,0,4
		c-1.3,1.7-3.2,2.9-4.2,4.9c-0.2,0.4-0.4,0.7-0.7,1c-1.3,0-2.7,0-4,0c-2-0.8-4-0.8-6,0C67.7,169.5,67,169.5,66.4,169.5z"/>
	<path class="st0" d="M78.4,169.5c0-0.3,0-0.7,0-1c3.2-3.7,6.4-7.5,10.1-10.8c1.8-1,3.6-1.7,5.6-0.7c1.6,2-0.2,3.1-1.2,4.2
		c-2.4,2.6-4.8,5.1-7.4,7.4c-0.3,0.3-0.7,0.6-1,1C82.4,169.5,80.4,169.5,78.4,169.5z"/>
	<path class="st0" d="M68.4,169.5c2-1.9,4-1.3,6,0C72.4,169.5,70.4,169.5,68.4,169.5z"/>
	<path class="st0" d="M84.4,169.5c0-0.3,0-0.6,0-0.9c0.6-0.6,1.4-0.9,2.2-1.1c1.5-0.3,2.8-0.2,3.9,1.1c-0.2,0.3-0.2,0.6-0.1,0.9
		C88.4,169.5,86.4,169.5,84.4,169.5z"/>
	<path class="st0" d="M96.2,18.5c0.4,1,0.8,2,1.3,2.9c0.7,0.6,0.4,1.6,0.8,2.3c0.1,1.5,0.2,3.1,0.2,4.6c0,0.2-0.1,0.5-0.1,0.7
		c-0.4,1-1.1,1.7-1.8,2.4C77.9,50.1,59.4,68.7,40.7,87.2c-1.1,1.1-2.2,2-3.4,3c-0.4,0.3-0.8,0.5-1.3,0.5c-2-0.8-2.6-2.3-2.5-4.3
		c-1.7-5.5-3.3-11.1-2.1-17c0.4-0.3,0.8-0.3,1.2,0c0.7,0.8,0.7,1.8,1,2.7c1.7,0.1,2.2-1.4,3-2.3C55,51.8,73,33.5,91.3,15.5
		c0.8-0.8,1.6-1.6,2.1-2.8c0.4-0.6,0.8-1.2,1.6-1.2c0.1,1.3,0.3,2.5,0.4,3.8c1.2,2.8-1.4,3.7-2.7,5.2C73.3,40,53.9,59.4,34.5,78.9
		C53.6,59.7,72.8,40.6,92,21.4C93.4,20.5,94.1,18.5,96.2,18.5z"/>
	<path class="st0" d="M95,11.5c-0.2,0.3-0.4,0.6-0.6,0.9c-0.4,0.3-0.8,0.5-1.3,0.4c-1.2-0.4-1.5-1.5-1.6-2.6c-0.8-0.9-1,0.2-1.3,0.5
		C72.6,28.5,55,46,37.4,63.6c-1.2,1.2-2.3,2.4-3.1,3.8c-0.5,0.8-1,1.6-1.9,2c-0.3,0-0.6,0-0.9,0c0.3-1.6,0.6-3.3,0.9-4.9
		c0.5-2.5,1-5,3.8-6.2c6-8.8,13.4-16.6,20.1-24.9c0.9-4.2,4.7-6.2,7.4-8.9C68.8,20.2,74,15.8,78.8,11c1.5-1.5,3.3-2.7,5.3-3.6
		c0.8-1.8,3.2-1.6,4.2-3.2c2.3-0.7,3.2-3.7,6-3.6c0,1,0.1,1.9,0.1,2.9c1.3,2-0.3,4.3,0.8,6.4C95.2,10.4,95.1,11,95,11.5z"/>
	<path class="st0" d="M84.4,160.5c-1.2,0-2.3,0.1-3.5,0c-5.7-0.7-10.7,0.4-14.5,5c-2.2,1.3-4.5,0.7-6.7,0.4c-2.6-0.7-5-1.8-7.3-3.2
		c-0.7-1.6,1-2.1,1.4-3.2c-0.6,0.9-1.6,1.6-2,2.7c-0.2,0.2-0.3,0.3-0.5,0.5c-1.3-0.7-2.6-1.5-3.9-2.2c-1-0.2-0.2-2.6-2.1-1.7
		c-1.8-0.9-2.8-2.6-4-4.1c-0.9-1-1.9-1.8-2.7-2.9c-2.6-1.9-1.6-4.8-2-7.3c0.7-2.5,2.5-4.1,4.6-5.4c0.5-0.2,1-0.2,1.5-0.2
		c3.3,1,6.5,2.3,9.1,4.7c0.6,1.4,0.7,2.8-0.5,3.9c-0.4,0.3-0.8,0-1.2-0.1c0,0.7-0.1-0.2,0.4,0.4c0.3,0.3,0.4,0.6,0.5,1
		c0,3.6,3.3,3.7,5.4,5c1.2,0.6,2.4,1.2,3.7,1.6c2.4,0.8,4.9,1.4,7.5,1.8c1.5,0.2,2.9,0.6,4.4,0.9c0.5,0,1,0.1,1.6,0.1
		c3.8,0.4,7.7-0.8,11.4,0.9C85.8,160,85.7,160.5,84.4,160.5z"/>
	<path class="st0" d="M22.4,122.3c-0.1-1.6-0.1-3.2-0.2-4.8c0.2-0.4,0.5-0.8,0.8-1.1c4.5-4.1,8.9-8.3,12.8-13
		c0.3-0.3,0.7-0.6,1.2-0.7c3.5-0.8,6.6,1.4,10,1.2c1.1,0.1,2.2,0.2,3.2,0.2c0.4,0.3,0.6,0.6,0.7,1.1c-0.1,1.9-1.6,2.1-3,2.5
		c-2.2,0.3-3.4,1.9-4.8,3.2c-4.7,4.6-9.2,9.4-14,13.9c-1.5,1.4-3.3,3.8-5.5,0.6l-0.4,0.1C22.4,124.6,23.3,123.3,22.4,122.3z"/>
	<path class="st0" d="M23.4,117.5c-0.4,0-0.8,0-1.2,0.1c-0.3-1.3-0.7-2.7-1-4c-0.5-5-0.6-10,0-15c0.5-1-0.2-2.9,1.9-2.9
		c1.7,0.7,3.6,0.9,4.5,2.8c0.1,0.5,0,0.9-0.3,1.2c-0.7,0.9-1.2,1.8-2.1,2.5c1-0.6,1.5-1.7,2.2-2.6c0.5-0.5,1.1-0.7,1.8-0.7
		c1.2,0.1,2.2,0.6,3.2,1.1c1.2,0.9,2.6,1.5,3.9,2.3c0.3,0.3,0.4,0.7,0.3,1.2l-0.3,0.3C32.5,108.6,27.2,112.3,23.4,117.5z"/>
	<path class="st0" d="M27.4,137.4c-1-2.3-1.9-4.7-2.9-7c-1-0.7-0.6-1.7-0.5-2.7c1-1.2,2.1-0.7,3.2-0.3c0.6,0.4,1.1,0.8,1.6,1.2
		c0.7,0.5,1.4,1,2.1,1.5c1.9,1.8,3.9,3.3,6.2,4.6c0.3,0.3,0.6,0.7,0.6,1.1c0,0.5-0.2,0.8-0.5,1.2c-2,1.3-3.3,3.6-5.8,4
		c-1.5,0-1.5-2.1-2.9-2.2C27.9,138.5,27.7,137.9,27.4,137.4z"/>
	<path class="st0" d="M24.3,127.5c-0.2-0.1-0.5-0.2-0.7-0.2c0-0.6,0-1.2,0.1-1.8c2.1,1.7,3.3,0,4.6-1.3c4.9-4.9,9.8-9.9,14.8-14.8
		c1.3-1.3,2.3-2.9,4.4-2.9c0.6,1.8-0.7,2.8-1.7,3.8c-6.1,6.1-12,12.3-18.3,18.2C26.3,128.1,25.3,127.8,24.3,127.5z"/>
	<path class="st0" d="M31.4,144.5c-0.2-0.4-0.5-0.8-0.7-1.1c-0.8-1.3-1.5-2.6-2.3-3.9c0-0.3,0.1-0.7,0.1-1c1.5-0.1,1.8,1.4,2.8,2
		c3,0.1,3.7-3.1,6-4l0,0c0.3-0.3,0.7-0.5,1.2-0.4c0.9,0.3,1.6,0.7,2.2,1.5c0.1,0.4,0.1,0.9,0,1.3c-1.4,2.9-4.5,4.5-5.4,7.8
		c-0.2,0.4-0.6,0.7-1,1C33.3,146.6,32.4,145.5,31.4,144.5z"/>
	<path class="st0" d="M36.4,151.5c0.3-0.6,0-0.9-0.6-1.2c-0.5-0.9-1-1.8-1.5-2.7c0-0.4,0-0.8,0.1-1.2c0.9-0.8,1.1-2.7,3-2
		c0.6,2.4-0.1,5.1,2,7c0.3,0.9-0.1,1.2-1,1C37.7,152.3,36.8,152.3,36.4,151.5z"/>
	<path class="st0" d="M59.4,165.4c2.3-1.6,4.7,0.7,7,0.1c-0.5,1-2.1,1.3-2,2.7c-2.1,0-4-0.9-5.8-1.8c-0.5-0.2-0.6-0.6-0.4-1.1
		C58.6,165.1,59,165.1,59.4,165.4z"/>
	<path class="st0" d="M59.4,165.4c-0.4,0-0.8,0.1-1.2,0.1c-1.6,0.9-2.8,0.5-3.8-1c-1-0.7-2.1-1.3-3.1-2l0.2-0.2
		c0.3-0.4,0.6-0.4,0.9,0.1C54.6,163.6,57.5,163.2,59.4,165.4z"/>
	<path class="st0" d="M46.4,160.4c-0.3-0.3-0.7-0.6-1-0.9c-0.1-0.2-0.1-0.5-0.1-0.7c0.2-1-0.2-3,1.2-2.7c2.9,0.6,0.2,3,0.9,4.4
		c0,0-0.5,0.1-0.5,0.1L46.4,160.4z"/>
	<path class="st0" d="M38.4,152.4c0.3-0.3,0.6-0.7,1-1c1.4,0.6,2,1.6,2,3.1l-0.5-0.1c0,0-0.5,0.1-0.5,0.1c-0.6-0.4-1.3-0.9-1.9-1.3
		C38.4,153,38.4,152.7,38.4,152.4z"/>
	<path class="st0" d="M27.4,128.5c0.1-2.6,2.4-3.8,3.9-5.4c5.3-5.6,10.7-11.1,16.1-16.6c1.5,0,2.9,0,3-2c-0.7-1.8,0.7-2.8,1.7-3.8
		c17.1-17.2,34.3-34.4,51.6-51.5c1.1-1.1,2.2-2.7,4.2-1.8c3.3,1.2,3.4,4.1,3.7,6.9c-7.9,10.3-18.1,18.4-25.7,26.9
		c5.9-5.9,12.9-13,20-19.9c2.9-2.8,3.4-2.6,4.4,1.3c-0.3,1.4-1.1,2.4-2.1,3.3c-8.3,7.9-15.7,16.7-24.7,23.9
		c-4.5-2.6-0.9,2.6-2.6,2.7c-8.2,9-16.5,17.9-26,25.6c-1.7-0.5-1.7,0.4-1.3,1.6c-5,5.7-9.9,11.5-16.3,15.8c-3.2-0.5-5.4-2.4-7-5
		c1-1.8,2.6-3,4-4.4c24.2-24.3,48.5-48.5,72.7-72.7c-24.5,24.5-49,49-73.5,73.4c-1.4,1.3-2.3,4-5.2,2.8
		C28,129.1,27.7,128.8,27.4,128.5z"/>
	<path class="st0" d="M49.4,104.5c-0.6,1.1-1.2,0.2-1.8,0c-2.6-0.6-4.1-2.4-4.8-4.9c0-1,0.3-1.9,0.7-2.8c1.2-2.2,3.2-3.8,4.9-5.6
		c17.8-18,35.9-35.6,53.5-53.8c0.4-0.3,0.9-0.3,1.3,0c1.5,2.6,3.5,4.9,4.1,8c-1.1,1.9-2.8,3.3-4.3,4.8
		C86.6,66.7,70.1,83.2,53.7,99.6C52.2,101.2,50.5,102.6,49.4,104.5z"/>
	<path class="st0" d="M135.4,90.5c0,0.6,0.1,1.2,0.1,1.8c0.5,0.8,0,1.2-0.7,1.5c-2.2-0.2-3.2,1.6-4.4,2.9
		c-10.7,10.7-21.4,21.4-32.2,32.1c-1.4,1.4-2.5,3.8-5.3,2.6c-0.7-1.1-0.7-2.3-0.3-3.5c7.4-7.6,15-15,22.4-22.5
		c4.1-4.1,8.2-8.2,12.3-12.3c-4.3,4.3-8.6,8.5-12.8,12.8c-5.9,5.9-11.7,11.8-17.7,17.6c-1,1-1.7,3.2-3.9,1.8
		c-0.8-1.4-0.8-2.8-0.3-4.3c1.4-2.9,4-4.8,6.2-7c9-9.1,18-18.1,27.1-27.1c1.4-1.4,2.6-3.1,4.6-3.7c2.4,0.4,1.6,3.3,3.2,4.2
		C134.3,88.4,134.8,89.4,135.4,90.5z"/>
	<path class="st0" d="M103.2,37.5c-0.3,0-0.6,0-0.9,0c-3,4-6.9,7.3-10.4,10.8c-14.9,15-29.9,29.9-44.8,44.9
		c-1.2,1.2-3.3,1.9-2.8,4.2c-0.3,0.7-0.7,1.4-1,2.1c-1,0.4-1.8-0.1-2.6-0.7c-1.1-1-2-2.1-2-3.7c0.1-0.5,0.2-0.9,0.5-1.4
		c18.2-18.9,37-37.1,55.4-55.7c1.7-1.8,3.7-3.4,4.8-5.7c0.3-0.4,0.6-0.7,1-1C101.8,33.2,102.5,35.3,103.2,37.5z"/>
	<path class="st0" d="M100.4,31.4c0,0.4-0.1,0.7-0.1,1.1c-1.1,1.9-2.8,3.3-4.3,4.8C78.5,54.9,60.9,72.4,43.4,89.9
		c-1.4,1.4-3,2.7-4,4.5l-0.3,0.3c-0.4,0.1-0.8,0.1-1.2-0.1c-1-0.8-2.1-1.6-1.7-3.1c0-0.3,0-0.7,0.1-1c0,0,0.2-0.2,0.2-0.2
		c2.6-1.9,4.7-4.2,7-6.4C60.4,67,77.4,50,94.3,33c1.4-1.4,3-2.7,4-4.5l0.2-0.2C100,28.8,100.3,30,100.4,31.4z"/>
	<path class="st0" d="M109.4,62.5c0.2-3-0.8-2.7-2.6-1c-6.7,6.7-13.4,13.5-20.1,20.1c-1.3,1.3-2.3,3.3-4.9,3.5
		c-0.3-2.1,1.4-2.9,2.5-4c7.5-7.6,15-15.2,22.6-22.5c1.5-1.5,1.8-4.3,4.6-4.3c1.2,1.6,0.5,3.5,1,5.2c1.8,3.8,0.3,7-2,10
		c-1,2.3-2.1,4.6-3.1,6.9c-0.2,0.4-0.5,0.6-1,0.6c-0.4,0-0.8-0.1-1.1-0.3c-5.7,3.5-9.5,9.1-14.4,13.4c-1.7,1.5-2.9,3.7-5.6,3.8
		c-1.7-0.5-2.3-1.7-2.2-3.3c7.5-8.3,15.8-15.9,23.6-24C107.7,65.5,109.9,64.8,109.4,62.5z"/>
	<path class="st0" d="M105.4,76.5c0.4,0,0.8,0.1,1.2,0.1c1.2,1.1-2,5.5,2.9,3.9c0.6-0.2,1.2-0.3,1.8-0.5c0.3,0.4,0.6,1,0.3,1.3
		c-6.6,7.9-13.4,15.7-22,21.7c-0.5,0-1-0.1-1.4-0.3c-1.4-1.7-1.8-3.8-2.8-5.7c-0.3-0.9-0.6-1.8-0.2-2.8c5.9-4.1,10.2-9.8,15.4-14.5
		C102.1,78.4,103.1,76.5,105.4,76.5z"/>
	<path class="st0" d="M125.4,71.4c0.4,1,0.8,1.9,1.2,2.9c-0.1,0.2-0.2,0.4-0.4,0.6c-11.7,11.5-23.2,23-34.6,34.7
		c-0.5,0.2-0.9,0.2-1.3-0.1c-1.1-1.1-1.2-2.5-1.5-3.9c0-0.5,0.1-0.9,0.2-1.4c7.4-7.1,14.6-14.5,21.9-21.8c1.1-1.1,1.8-2.3,2.5-3.7
		c3.6-3,7.2-5.9,10.8-8.9C125.1,69.9,124.7,71.1,125.4,71.4z"/>
	<path class="st0" d="M90.6,109.5c0.3,0,0.5,0,0.8-0.1c11.2-12,22.9-23.7,34.9-35c0,0,0.3-0.3,0.3-0.3c1,0.8,1.7,1.8,1.9,3.1
		c-0.1,0.2-0.1,0.5-0.2,0.7c-4.2,5.6-9.5,10.1-14.4,15c-6.9,6.9-13.5,14.1-20.9,20.6c-0.4,0.2-0.9,0.3-1.3,0.2
		c-1.4-0.7-1.8-1.9-1.8-3.3C89.9,110,90.2,109.7,90.6,109.5z"/>
	<path class="st0" d="M49.4,104.5c0-1.5,0.9-2.4,1.9-3.4c18.3-18.3,36.6-36.5,54.9-54.8c0.3-0.3,0.8-0.6,1.2-0.8
		c0.2,0.6,0.3,1.2,0.5,1.8c-0.9,0.7-2,1.2-2.8,2C87.3,67,69.6,84.8,51.9,102.5c-0.6,0.6-1,1.3-1.5,2C50,104.5,49.7,104.5,49.4,104.5
		z"/>
	<path class="st0" d="M113.4,78.7c1.2,1.9-0.5,2.7-1.5,3.7c-7.4,7.4-14.8,14.8-22.3,22.1c-0.9-0.5-0.9-1.2-0.4-2
		c7.8-7,15.4-14.2,21.9-22.4C112,79.6,112.7,79.1,113.4,78.7z"/>
	<path class="st0" d="M133.7,87.4c-2-0.5-1.8-3-3.4-3.9c-0.8-0.4-1.2-1.1-1.7-1.8c-0.5-0.7-0.9-1.4-1-2.3c0-0.7,0.2-1.3,0.6-1.8
		c0,0,0.2-0.3,0.2-0.3C130.9,80.3,132.6,83.7,133.7,87.4z"/>
	<path class="st0" d="M92.4,20.5c0.7-1.9,3.1-2.7,3-5.1c0.8,0.9,0.9,2,0.8,3.1c-1.1,1.3-2.2,2.4-3.8,3c-0.3-0.2-0.4-0.4-0.3-0.7
		C92.2,20.6,92.3,20.5,92.4,20.5z"/>
	<path class="st0" d="M90.5,168.5c-1.4,0-2.7-0.1-4.1-0.1c-0.2-2.6,2.2-3.5,3.5-4.9c2.3-2.5,4.8-4.9,7-7.6c0.9-0.8,2-1.3,3.1-1.7
		c7.5-1.4,9.7-7.7,12.3-13.6c0.2-0.4,0.4-0.8,0.8-1.1c1.4-0.7,3-0.8,4.2-1.9c4.7-2.5,8.4-6.3,12.8-9.2c1.6-0.7,3.3-2.8,4.9,0
		c0.1,0.7,0.2,1.5-0.4,2.1c-1.1,2-2.1,4-3.2,5.9c-8.6,6.9-15.7,15.4-23.6,22.9c-1.4,1.4-2.8,2.9-4.2,4.2c-0.6,0.7-1.2,1.3-2,1.8
		C98,167.2,94.3,168.2,90.5,168.5z"/>
	<path class="st0" d="M134.4,93.5c0.4-0.4,0.7-0.8,1.1-1.2c1.6,3.2,2.1,6.6,2.1,10.1c-1.1,3.9-5.2,4.9-7.6,7.5
		c-3.4,3.6-6.3,7.8-11,10c-0.8,0-1.4-0.3-2-0.7c-0.6-0.5-1-1.1-0.7-1.9c5.2-5.6,10.8-10.8,16-16.2c0-0.4,0.1-0.2-0.2,0.1
		c-5.4,5.6-11.1,10.9-16.4,16.6c-6.2,7.4-13.4,13.8-20.2,20.6c-1,1.1-2.3,2.1-4,1.3c-1-1.1-0.3-2.2,0.1-3.3c0.4-1.1,0.8-2.2,1.4-3.2
		c12.6-12.1,24.7-24.7,37.2-36.9C131.3,95.1,132.1,93.1,134.4,93.5z"/>
	<path class="st0" d="M118.4,119.5c3-2.8,6.1-5.6,9-8.6c3.1-3.2,6.4-6.1,10.2-8.5c1.3,4.1,0.4,8.1-0.2,12.1
		c-0.7,1.2-0.6,2.7-1.6,3.8c-5.3,5.5-10.7,10.9-16.2,16.2c-1.4,1.4-2.8,3.6-5.4,1.9c-0.8-2,0.1-3.8,0.7-5.6
		c5.7-5.3,11.1-10.9,16.6-16.4c1.2-1.3,3-2.2,3-4.3c-4.9,2-7.2,6.8-11.2,9.8c-1.5,1.2-2.5,3.8-5.2,2.3
		C117.5,121.2,117.5,120.2,118.4,119.5z"/>
	<path class="st0" d="M101.4,165.4c0.3-0.6,0.7-1.3,1-1.9c8.6-7.4,16-15.9,24.3-23.7c1.1-1,1.7-3.1,3.9-2.1c0.1,0,0.1,0.3,0.1,0.4
		c0,0.2-0.1,0.3-0.2,0.5c-0.3,1-1.3,1.7-0.9,2.9c0.5,1.8-0.8,2.4-1.9,3.1C120.7,153.8,112.8,161.8,101.4,165.4z"/>
	<path class="st0" d="M136.5,119.7c0.5,1.4-1.8,2.3-0.7,3.8c-0.1,0.3-0.2,0.7-0.3,1c-0.1,1.5-1.6-2.7-1.6,0.4c0,2-2.7,2.7-3.5,4.5
		c-4.4,2.9-7.9,7.1-13,9c-2.6-0.8-0.5-1.9,0-2.4c6.1-6,11.7-12.4,18.2-17.9C136.5,118.4,137,118.7,136.5,119.7z"/>
	<path class="st0" d="M130.4,138.6c-2.3-1.2-2.7,1.2-3.7,2.1c-6.9,6.9-13.7,13.9-20.5,20.9c-1.1,1.1-2.3,1.8-3.9,1.9
		c8.8-8.9,17.5-17.8,26.3-26.8c0.9-0.9,1.7-0.7,2.6-0.3C131.5,137.3,131.2,138.1,130.4,138.6z"/>
	<path class="st0" d="M135.2,128.3c-0.2,0.1-0.5,0.2-0.7,0.2c-1.9-2-2.7,0.8-4.1,1c0-2.6,2.8-3.5,3.3-5.9c0.1-0.6,1,0.9,1.8,1
		C135.4,125.7,135.3,127,135.2,128.3z"/>
	<path class="st0" d="M136.5,119.7c-0.4-0.4-0.7-0.8-1.1-1.2c-0.3-0.2-0.4-0.4-0.3-0.7c0.1-0.2,0.2-0.3,0.3-0.3c0.6-1,1.3-2,1.9-3
		c0,1.6,0,3.2,0,4.8C137,119.4,136.7,119.5,136.5,119.7z"/>
	<path class="st0" d="M84.4,160.5c0.3-0.4,0.7-0.7,1-1.1c-0.3-0.5-0.2-1,0.2-1.3c1-0.5,2-0.5,2.8,0.4c-3,3.7-6.2,7-10,9.9
		C78.8,164.6,83,163.6,84.4,160.5z"/>
	<path class="st0" d="M88.4,158.5c-1,0-2,0-2.9,0c-1.1,0.7-2.4,0.3-3.6,0.4c-1.3-0.6-2.9-0.3-4.2-0.9c-1.6-2,0.3-3,1.2-4.1
		c1.5-1.9,3.8-3.2,4.8-5.6c0.1-0.4,0.4-0.8,0.7-1.1c0.4-0.2,0.8-0.3,1.3-0.4c2.1,0.3,3.9-0.8,5.9-1.3c0.7-0.1,1.4-0.2,2.1-0.2
		c1.4,0,2.9,0,4.2,0.6c1.8,1.8-0.3,2.6-1.1,3.5c-1.2,1.5-2.7,2.8-3.6,3.7c1.5-2.2,4.9-3.4,5.8-6.9c0.2-0.7,0.7-1.1,1.3-1.5
		c1.5-0.5,2.9-1.1,4.2-1.9c1.3-0.5,2.6-1,4-0.5c1.3,2.3-0.6,3.5-1.8,5c-1.9,2.4-4.8,3.8-5.9,6.9c0,0.4-0.1,0.8-0.4,1.1
		c-1,0.4-2,0.8-3,1.2c-1,0.3-1.7,1.6-3,0.9C92.4,157.8,90.4,158.2,88.4,158.5z"/>
	<path class="st0" d="M94.4,157.5c1-0.3,2-0.6,3-0.9c-3.7,4-7.3,7.9-11,11.9c-0.7,0-1.3,0.1-2,0.1C87.7,164.9,91,161.2,94.4,157.5z"
		/>
	<path class="st0" d="M32.4,69.5c0-0.8,0.2-1.6,1-2c2.7-3.6,6.1-6.5,9.3-9.7c15.1-15.2,30.3-30.3,45.5-45.4c1.2-1.2,1.9-3.3,4.2-2.8
		c0,1.1-0.2,2.3,1,3c0.6,1.7-0.9,2.3-1.7,3.2C73.1,34.2,54.5,52.8,35.9,71.3c-1,1-1.7,2.6-3.6,2.1C32.4,72.1,32.4,70.8,32.4,69.5z"
		/>
	<path class="st0" d="M32.4,73.5c9.2-9.1,18.6-18.1,27.7-27.3C71.3,35,82.3,23.7,93.4,12.5c0.3,0,0.7,0,1,0c0,1.2-0.2,2.1-1.1,3.1
		C74.1,34.5,55,53.5,35.9,72.3C35.1,73.1,34.5,76.1,32.4,73.5z"/>
	<path class="st0" d="M98.3,28.6c0.1,2-1.5,2.9-2.6,4C77.3,51,58.9,69.4,40.5,87.8c-1.1,1.1-2.1,2.7-4,2.6c0.7-2.6,3.2-3.6,4.9-5.3
		c17.5-17.7,35.2-35.3,52.8-52.9C95.5,30.9,96.9,29.8,98.3,28.6z"/>
	<path class="st0" d="M95.3,23.8C75.1,44,54.9,64.2,34.7,84.4c0.3,0.3,0.7,0.7,1,1C55.9,65.2,76.1,45,96.3,24.8
		C96,24.4,95.7,24.1,95.3,23.8z"/>
	<path class="st0" d="M92.4,20.5c0,0.3,0,0.7,0,1c-5.3,5.5-10.6,11-16,16.4C62.2,52.1,48,66.3,33.7,80.5c-0.9-1.5,0.4-2.3,1.3-3.2
		c18.7-18.7,37.4-37.4,56.1-56.1C91.5,20.9,92,20.7,92.4,20.5z"/>
	<path class="st0" d="M92.4,9.5C87,14.7,81.6,19.8,76.3,25.1C62,39.2,47.7,53.3,33.4,67.5c0-1.7,1.2-2.7,2.2-3.7
		C54.2,45.2,72.7,26.6,91.3,8.1c0.4-0.4,0.9-0.7,1.4-1.1C93.4,8.1,92.5,8.7,92.4,9.5z"/>
	<path class="st0" d="M51.5,143.5c-3.3-0.7-6-2.8-9.1-4.1c-0.6-2.9,2.1-3.8,3.4-5.5c2.2-2.8,5.8-4.4,6.4-8.4c0.4-1,0.4-2.2,1.8-2.2
		c3.4,5,1.4,10.3,0.7,15.5c-0.2,1.7-0.4,3.4-1.8,4.6C52.5,143.8,52,143.8,51.5,143.5z"/>
	<path class="st0" d="M67.4,158.3c-2.7-0.7-5.4-1.3-8-2c-1.5-2.9,1.3-3.9,2.6-5.5c1.2-1.5,2.6-2.9,4.3-3.9c0.5-0.2,0.9-0.4,1.4-0.5
		c1.5-0.2,3-0.2,4.4,0.5c0.4,0.3,0.6,0.7,0.6,1.2c-1.9,1.3-3.6,2.7-4.8,4.6c1.3-1.9,3.1-3.4,5-4.7c1.1-0.7,2.3-0.7,3.4,0
		C75.7,153.5,71.6,155.9,67.4,158.3z"/>
	<path class="st0" d="M56.4,154.5c-2.5-1.5-7.6-0.4-5.9-6c2.2-1.6,4.3-3.2,7.1-3.8c1.5-0.2,2.9-0.4,3.9,1.1c-1.3,1.9-4,2-4.8,4
		c1-1.5,2.6-2.6,4.6-3.3c0.3-0.4,0.7-0.6,1.2-0.7c0.8-0.1,1.5,0.1,2.1,0.6c0.3,0.4,0.4,0.9,0.4,1.4
		C62.4,150.3,61.2,154.7,56.4,154.5z"/>
	<path class="st0" d="M72.3,159.4l-0.5,0l-0.5,0c-1.5-1.6-1.5-3.1,0.3-4.6c2.5-2.2,4.5-4.8,7-6.9c1.5-0.5,2.9-0.6,4.3,0.1
		c1.8,1.8-0.3,2.5-1.1,3.5c-1.7,2.2-4.2,3.6-5.5,6.2c-0.2,0.4-0.5,0.8-0.8,1.1C74.5,159.2,73.3,158.6,72.3,159.4z"/>
	<path class="st0" d="M53.4,126.5c-1.1,4.1-5,5.9-7.4,8.9c-1.1,1.4-2.4,2.7-3.6,4.1c-0.3,0-0.7,0-1,0c-0.6-0.1-0.9-0.4-1-1
		c0-0.3,0-0.7,0-1c3-3.5,6.4-6.5,9.6-9.7C50.9,126.9,51.8,125.8,53.4,126.5z"/>
	<path class="st0" d="M78.4,148.5c-1.9,2.1-3.6,4.3-5.7,6.1c-1.6,1.4-2,2.9-1.3,4.8c-1.3-0.4-2.6-0.7-3.9-1.1c3-3.3,6-6.5,8.9-9.8
		C77,147.9,77.7,147.9,78.4,148.5z"/>
	<path class="st0" d="M57.4,145.5c-2.2,1.1-4.1,3.1-6.9,3c-0.1-0.3-0.1-0.6-0.1-1l0,0c1.6-1,0.7-2.7,1.1-4c0.3,0,0.7,0,1,0
		c0.3-0.3,0.7-0.5,1.2-0.4C55.2,143.5,56.8,143.7,57.4,145.5z"/>
	<path class="st0" d="M56.4,154.5c3.8-1.1,5.7-4.3,8-7c0.7-0.6,1.3-0.5,2,0c-1.7,3.4-6,4.8-7,8.8C58.4,155.7,57.4,155.1,56.4,154.5z
		"/>
	<path class="st0" d="M40.4,138.5c0.3,0.3,0.7,0.7,1,1c-1.3,1.7-2.7,3.3-4,5c-1,0.7-2,1.3-3,2C35.1,142.8,38.7,141.4,40.4,138.5z"/>
	<path class="st0" d="M72.3,159.4c0.8-1.1,2-0.9,3.1-1c2-0.8,4-0.5,5.9,0c1.4,0,2.7,0.1,4.1,0.1c0,0.3-0.1,0.6-0.1,0.9
		C81,159.4,76.7,159.4,72.3,159.4z"/>
	<path class="st0" d="M52.4,162.4c-0.3,0-0.6,0-0.9-0.1c0.3-3.1,3-4,5.3-5.3C55.3,158.9,53.8,160.7,52.4,162.4z"/>
	<path class="st0" d="M63.8,163c0-2.1,1.2-2.7,2.8-3.5C66.4,161.5,65.3,162.2,63.8,163z"/>
	<path class="st0" d="M50.4,147.5c-0.8-0.3-2.2,0.6-2.3-1c0-0.4,0.8-1.3,1.3-1.3C51,145.4,50.1,146.8,50.4,147.5
		C50.4,147.5,50.4,147.5,50.4,147.5z"/>
	<path class="st0" d="M23.4,117.5c3-5.9,8.2-9.7,12.9-13.9C33.3,109.4,28,113.1,23.4,117.5z"/>
	<path class="st0" d="M22.9,111.7c1-4.3,4.6-6.3,7-9.2c0.3,0.3,0.6,0.5,0.9,0.8C28.2,106.1,25.5,108.9,22.9,111.7z"/>
	<path class="st0" d="M27.6,99.2c-0.5,2.8-2.5,4.2-5.5,6.4C23.3,101.8,25.8,100.8,27.6,99.2L27.6,99.2z"/>
	<path class="st0" d="M28.4,129.5c2.5-0.1,3.6-2.2,5.1-3.7c23.8-23.8,47.6-47.5,71.4-71.3c1.2-1.2,2.5-2.3,4-3.8
		c0.3,2.1-0.9,2.6-1.7,3.4C82.4,79,57.5,103.8,32.7,128.6c-0.7,0.7-1.6,1.2-2.3,1.8C29.5,130.4,28.8,130.3,28.4,129.5z"/>
	<path class="st0" d="M37.4,135.5c4.8-5.8,10.3-10.9,15.8-16c0.8,0.4,0.9,1.1,0.7,1.8c-4.6,5.6-9.3,11.1-15.5,15.2c-0.3,0-0.7,0-1,0
		C37.4,136.1,37.4,135.8,37.4,135.5z"/>
	<path class="st0" d="M37.4,136.5c-1.5,1.7-3,3.5-4.6,5c-1,0.9-1.2-0.2-1.3-1C33.7,139.6,34.5,136.5,37.4,136.5z"/>
	<path class="st0" d="M38.4,136.5c4.6-5.4,9.6-10.4,15-15c0.5,0.6,0.6,1.2,0.1,1.8c0,1.1-0.1,2.1-0.1,3.2c-2.9,2.7-5.7,5.4-8.6,8.1
		c-1.3,1.2-2.3,2.9-4.4,2.9C39.5,137.4,38.8,137.3,38.4,136.5z"/>
	<path class="st0" d="M53.5,123.3c0-0.6-0.1-1.2-0.1-1.8c-0.1-0.7-0.1-1.3-0.2-2c-0.1-1-0.6-2.2,1.2-2c0.5,0.4,1.2,0.4,1.7,0.8
		c0.9,0.6,1.8,1.2,2.7,1.8c0.5,0.4,1,0.9,1.4,1.4c1.4,2.3,3.8,4.1,3.9,7.1c-1.4,4.5-6.2,6.3-8,10.4c-0.7,0.8-1.5,1.3-2.5,0.4
		C54,134.1,55.5,128.7,53.5,123.3z"/>
	<path class="st0" d="M109.4,62.5c1.7,1.5,0.1,2.3-0.7,3.2c-8.3,8.3-16.7,16.6-25.1,24.8c-0.3-0.1-0.4-0.3-0.4-0.5
		c0-0.2,0.1-0.3,0.1-0.3c6.4-7.8,14.2-14.4,21.1-21.7C106.1,66.2,107.7,64.3,109.4,62.5z"/>
	<path class="st0" d="M55.4,118.4c-0.4-0.3-0.7-0.6-1.1-1c7.2-7,14.4-14.1,21.7-21.1c1.4-1.4,2.9-2.6,4.4-3.9
		c0.1,0.2,0.3,0.4,0.4,0.6c0.2,0.7,0.1,1.4-0.3,2.1c-6.8,7.5-14.2,14.4-21.4,21.6C58.2,117.7,57.2,119,55.4,118.4z"/>
	<path class="st0" d="M83.3,89.6c0,0.3,0.1,0.6,0.2,0.8c0.6,1,1.2,2,1.8,3c0.3,0.1,0.5,0.3,0.4,0.6c0,0.3-0.1,0.4-0.1,0.4
		c0.2,0.7,0.4,1.3,0.6,2c-1.5,1.5-2.5,4.2-5.5,2.7c-1.7-2.1,0.8-4.5-0.4-6.7c0,0,0,0,0,0c0-1.7,0-3.3,0-5
		C82.1,87.3,82.1,89.2,83.3,89.6z"/>
	<path class="st0" d="M44.4,97.5c-0.6-0.1-1.7-0.1-1.2-1c0.6-1.1,1.7-2,2.6-3C63.5,75.8,81.2,58.1,99,40.4c1-1,2.3-1.9,3.4-2.9
		c0,2.3-1.9,3.4-3.3,4.8C82.1,59.3,65,76.3,48,93.4C46.7,94.7,45.6,96.1,44.4,97.5z"/>
	<path class="st0" d="M134.4,93.5c-10.5,10.4-21.1,20.7-31.6,31.1c-3.1,3-6.2,5.9-9.4,8.9c-0.5-0.7-0.5-1.4,0.1-2
		c12.5-12.3,24.9-24.7,37.4-36.9C131.6,93.9,132.3,90.8,134.4,93.5z"/>
	<path class="st0" d="M129.4,81.5c0.8,0.4,1,1.2,1,2c-11.9,12.7-24.2,25.1-37,37c-0.7-0.2-1.2-0.7-1.3-1.4c0.1-0.5,0.2-0.9,0.6-1.3
		c11.9-11.1,23.1-22.9,34.6-34.3C127.9,82.7,128.4,81.9,129.4,81.5z"/>
	<path class="st0" d="M93.5,125.5c7-6.7,13.9-13.3,20.9-20c0.3-0.4,0.7-0.4,1,0c-6.9,7.8-14.3,15-21.9,22
		C92.9,126.8,92.9,126.1,93.5,125.5z"/>
	<path class="st0" d="M115.4,105.5c-0.3,0-0.7,0-1,0c5.4-4.8,10.8-9.7,16.1-14.5c-0.3-0.3-0.6-0.6-0.9-0.9
		C124.9,95.2,120.1,100.3,115.4,105.5z"/>
	<path class="st0" d="M93.5,125.5c0,0.7,0,1.3,0,2c0,1.3,0,2.7,0,4c0,0.7,0,1.3-0.1,2c-0.1,1.1,0,2.3-0.9,3.1
		c-2.9-4.1-1-8.7-1.5-13.1c0-0.9,0.1-1.8,0.4-2.6c0.2-0.6,0.6-1,1-1.4c0.3,0.3,0.6,0.7,0.9,1C93.4,122.1,93.4,123.8,93.5,125.5z"/>
	<path class="st0" d="M39.4,94.4c-0.1-1.5,0.9-2.4,1.9-3.3c19.3-19.2,38.5-38.5,57.8-57.7c0.3-0.3,0.8-0.6,1.2-0.8
		c0.1,1.7-1.1,2.7-2.2,3.7C79.2,55.1,60.3,74,41.4,92.9C40.8,93.5,40.1,93.9,39.4,94.4z"/>
	<path class="st0" d="M85.7,94.5c-0.1-0.3-0.2-0.7-0.3-1c6.7-6.5,13.5-13,20.3-19.5c0.7,1.2-0.2,1.8-0.3,2.5
		c-5.1,5-10.2,9.9-15.4,14.8C88.7,92.5,87.7,94.3,85.7,94.5z"/>
	<path class="st0" d="M81.5,99.5c1.7-0.8,2.6-3.1,4.8-3c1,1.8,2.1,3.6,2.2,5.7c-0.3,5.2-3.6,8.5-8.4,8.3c-0.7-1-0.7-2.1-0.6-3.2
		C80.5,104.8,79.2,101.7,81.5,99.5z"/>
	<path class="st0" d="M80.5,110.5c3.8-1.7,6.6-4.3,8-8.3c0.3,0.1,0.6,0.2,0.8,0.3c0.1,0.7,0.2,1.3,0.4,2c-0.1,0.3-0.1,0.6-0.2,0.9
		c-2.4,3.3-4,7.8-9.4,7.1C79.8,111.8,79.8,111.1,80.5,110.5z"/>
	<path class="st0" d="M126.3,74.5c-11.2,12.1-22.9,23.7-34.9,35c0-2.1,1.7-3.1,2.9-4.4c10-10.1,20-20.2,29.9-30.3
		C125,73.9,125.6,74.2,126.3,74.5z"/>
	<path class="st0" d="M80.3,112.5c4.3-0.8,5.6-5.4,9.2-7.1c1.2,1.2,0.8,2.7,1.1,4.1c0,0-0.3-0.1-0.3-0.1c-0.4,0.6-0.6,1.2-0.9,1.8
		c-2.3,2.8-5,5.4-7.7,7.8c-1.1,1-2.4,2.8-4,0.4c-0.3-0.9-0.3-1.8-0.1-2.7c0.3-1.1,0.7-2.2,1.1-3.2C79.1,113,79.6,112.6,80.3,112.5z"
		/>
	<path class="st0" d="M89.4,110.5c0.3-0.3,0.6-0.7,0.9-1c0.4,1.3,0.8,2.6,1.2,3.8c0.7,1,0.5,2-0.2,2.7c-5.6,5.2-10.7,10.9-16.4,16
		c-0.6,0.6-1.4,0.9-2.3,0.8c-2.1-1-1.6-2.5-0.6-3.9c1-1.5,1.8-3,2.6-4.5c0.6-1,1.3-2,2.4-2.6C82.4,119.4,85.6,114.6,89.4,110.5z"/>
	<path class="st0" d="M128.3,77.6c0,0.6,0.1,1.3,0.1,1.9c-3.4,5.8-9,9.5-13.3,14.5c-2.4,2.3-4.7,4.6-7,7c-1.4,1.3-2.8,2.7-4.1,4.1
		c-1.7,1.6-3.4,3.3-5,5c-2.1,1.6-3.3,4.4-6.3,4.7c-0.3-0.2-0.5-0.4-0.4-0.7c0-0.3,0.1-0.4,0.2-0.4
		C103.8,101.1,115.9,89.2,128.3,77.6z"/>
	<path class="st0" d="M92.3,113.6c0,0.3,0,0.6,0.1,0.8c0.6,0.6,0.6,1.2,0.4,2c-6.8,6.5-13.4,13.3-20.1,19.9
		c-1.4,1.4-2.5,3.1-4.7,3.4c-1.5-0.7-1.4-1.9-1.1-3.2c1.5-1.8,1.9-5.1,5.5-4.1c6.8-6,13.4-12.2,19.1-19.2
		C91.7,113.4,92,113.5,92.3,113.6z"/>
	<path class="st0" d="M92.2,116.5c0.1-0.7,0.1-1.3,0.2-2c2-1.7,4-3.3,6-5c2-1.3,3.7-3,5-5c1-1.7,2.3-3,4-4c2.7-1.9,5.1-4.3,7-7
		c4.3-5.1,8.9-9.7,14-14c0.3,0.7,0.7,1.3,1,2c0,1.5-0.9,2.4-1.9,3.4c-10.6,10.6-21.1,21.1-31.7,31.7c-0.9,0.9-1.8,1.9-3.3,2
		C91.8,117.9,91.8,117.2,92.2,116.5z"/>
	<path class="st0" d="M108.4,142.5c-1.3,0.3-2.7,0.6-4,1c0.7-4.2,5-5.4,6.5-8c-3.5,2.7-6.1,7.2-10.5,9.9c-0.4,0.3-0.7,0.7-1.1,1
		c-0.3,0.4-0.6,0.4-0.9,0c-1.7,0-3.5-0.1-5.2-0.1c0.7-4.3,4.8-5.8,7.5-8.1c4.9-4.2,9-8.8,12.2-14.3c0.8-1.4,1.6-3.5,4-2.1
		c0.9,2,0.9,4,0.5,6.1c-0.3,1.1-1,1.8-1.9,2.5c-0.3,2-0.6,4-0.9,6c0.7,1.4,0.2,2.3-1,3.1c-0.1,0.3-0.2,0.6-0.2,0.9
		c-0.7,0.8-1.5,1.5-2.5,1.9C110,142.7,109.2,143.1,108.4,142.5z"/>
	<path class="st0" d="M110.4,141.5c1-0.3,2-0.7,3-1c-2.3,6.7-4.9,13.1-13,14.8c0-0.3,0-0.6,0-0.8c-0.3-2.4,2-3.2,3.2-4.6
		C105.8,147.1,109.2,145.2,110.4,141.5z"/>
	<path class="st0" d="M113.6,139.5c0.3-1,0.7-2.1,1-3.1c4.5-1.8,6.9-6.1,10.3-9.1c3.6-3.2,7-6.6,10.5-9.9c0,0.3,0,0.7,0,1
		c-5.3,5.4-10.6,10.8-15.7,16.3c-0.9,1-3.3,1.4-2.3,3.7C116.4,139.8,115.2,140.4,113.6,139.5z"/>
	<path class="st0" d="M92.3,122.5c0,4.7,0.1,9.4,0.1,14.1c-0.3,1-0.6,1.9-0.9,2.9c0.4,0.6,0.8,1.2,0.9,2c0.1,1,0,1.9-0.6,2.8
		c-2.6,0.3-4.3,2.3-6.5,3.3l-0.5,0l-0.5,0c-1.4,0.7-3.1,1.1-3.9-0.3c-0.8-1.3,1-2.2,1.8-3.1c2.3-2.4,4.7-4.7,7-7.1c-3,3-6,6-9,9
		c-1.9,2-3.8,2.9-6.2,0.8c4.2-5.5,9.7-9.8,13.8-14.3c-4.2,3.9-8.6,8.8-13.5,13.3c-0.7,0.5-1.1,1.3-2,1.7c-1.7,0-3.3,0-5,0
		c-0.7-1.8,0.7-2.8,1.7-3.8c6.4-6.5,12.9-13,19.4-19.4C89.5,123.2,90.5,121.8,92.3,122.5z"/>
	<path class="st0" d="M91.6,141.5c0-0.7-0.1-1.3-0.1-2c3.1-0.5,4.4-3.3,6.4-5.2c5.9-5.5,11.6-11.2,17.4-16.8
		c0.1,0.2,0.3,0.4,0.4,0.6c0.2,0.7,0.1,1.4-0.2,2.1c-6,6.7-12.6,12.9-19,19.3C95.3,140.7,94.1,142.7,91.6,141.5z"/>
	<path class="st0" d="M115.4,117.5c6.7-6.2,13.4-12.3,20.1-18.5c-0.3-0.4-0.7-0.7-1-1.1c-6,6.5-12,13.1-18.1,19.6
		C116,117.9,115.7,117.9,115.4,117.5C115.4,117.5,115.4,117.5,115.4,117.5z"/>
	<path class="st0" d="M115.4,117.5c0.3,0,0.7,0,1,0c0.3,0.3,0.7,0.7,1,1c0.5,2.8,1.5,5.5,1,8.5c-0.4,0.8-0.7,1.6-1.8,1.6
		c0-2.3-0.1-4.7-0.1-7c-0.8-0.4-1.5-0.9-1-2C115.4,118.8,115.4,118.1,115.4,117.5z"/>
	<path class="st0" d="M117.4,127.5c0-3,0-6,0-9c0.3,0.3,0.7,0.7,1,1c0,1,0,2,0,3c1.1,1.1,1.2,2.4,0.8,3.8
		C118.8,127,118.4,127.7,117.4,127.5z"/>
	<path class="st0" d="M118.4,126.5c0-1.3,0-2.7,0-4c4.8-4.7,9.7-9.3,14.5-14c1.8-1.8,2.7-1.8,2.5,1c-1.7,4.9-6.3,7.4-9.6,10.9
		C123.6,122.7,122,125.9,118.4,126.5z"/>
	<path class="st0" d="M118.4,126.5c6.1-5.3,11.7-10.9,17-17c1.1,0.8,0.8,1.7,0,2.5c-6,6-12,12-18,17.9c-0.4,0.4-1.2,0.4-1.8,0.6
		c0.3-0.7,0.7-1.3,1-2c0.3-0.3,0.6-0.7,0.9-1C117.7,127.1,118,126.8,118.4,126.5z"/>
	<path class="st0" d="M115.3,119.5c0.3,0.7,0.7,1.3,1,2c-3.2,1.9-3.6,5.7-5.7,8.4c-5.1,6.4-11.8,10.9-17.5,16.5c-0.6,0-1.1,0-1.7,0
		c-0.7-0.6-0.7-1.3-0.2-2c0.1-1,0.2-2,0.3-3c3.6-1,5.3-4.3,7.8-6.6C104.8,129.8,110,124.6,115.3,119.5z"/>
	<path class="st0" d="M72.4,147.5c0-0.8,0.2-1.6,1-2c0.4,0.3,0.9,0.4,1,1c2.3,2.2,3.9,0.6,5.5-1c3.5-3.5,7-7.1,10.5-10.7
		c0.3,0.3,0.7,0.6,1,0.9c-3.5,3.7-7,7.4-10.4,11c1.2,1.2,2.5,0.6,3.5,0.8c0,0.3,0,0.6-0.1,1c-0.3,0.4-0.7,0.4-1,0c-1.7,0-3.3,0-5,0
		c-0.7,0-1.3,0-2,0c-1.3,0-2.7,0-4,0l0,0C72.4,148.1,72.4,147.8,72.4,147.5z"/>
	<path class="st0" d="M100.4,145.4c4.3-4.5,8.6-9.1,13-13.6c-1.6,5.1-6.4,7.5-9,11.7C103.6,145.3,102.1,145.5,100.4,145.4z"/>
	<path class="st0" d="M110.4,141.5c1.3,2.1-0.6,2.9-1.6,4c-2.8,3-5.6,5.9-8.4,8.9c-3-0.7-0.6-1.7,0-2.4c2.5-3.3,6.7-5.2,8-9.5
		C109,142.2,109.7,141.9,110.4,141.5z"/>
	<path class="st0" d="M98.4,146.5c0.3,0,0.6,0,0.9,0c-1.3,4.8-5.8,6.6-9.4,9.3C92.8,152.7,95.6,149.6,98.4,146.5z"/>
	<path class="st0" d="M91.3,144.4c0.1,0.7,0.1,1.3,0.2,2c-2,0.8-3.7,2.7-6.1,1.1C87.3,146.3,87.2,141.3,91.3,144.4z"/>
	<path class="st0" d="M83.4,148.5c0.3,0,0.7,0,1,0c-0.7,4.3-5.4,5.4-7,9c-0.7,0.6-1.3,0.6-2,0C78,154.5,80.7,151.5,83.4,148.5z"/>
	<path class="st0" d="M75.4,157.5c0.7,0,1.3,0,2,0c1.4,0.1,2.9-0.5,4,0.9c-2,0-4,0-5.9,0C75.4,158.1,75.4,157.8,75.4,157.5z"/>
	<path class="st0" d="M53.5,139.5c0.8,0,1.5-0.2,1.9-1c2.9-3.1,5-7,9.4-8.4c1.1,0.4,1.4,1.4,1.5,2.4c-1.9,6.1-7.8,11.1-12.9,11
		l-0.4,0c0,0-0.4,0-0.4,0C52.8,142.1,53.2,140.8,53.5,139.5z"/>
	<path class="st0" d="M92.3,122.5c-8.7,7.9-17,16.2-25,25c-0.3,0-0.7,0-1,0c-0.7,0-1.3,0-2,0c0-0.3,0-0.6,0-1
		c7.9-8.3,16.1-16.2,24.2-24.3c1-1,2-2.3,3.8-1.8C92.3,121.1,92.3,121.8,92.3,122.5z"/>
	<path class="st0" d="M72.4,148.4c-1.9,2.7-4.2,4.9-7.2,6.5C67.7,152.9,68.1,148.7,72.4,148.4C72.4,148.4,72.4,148.4,72.4,148.4z"/>
	<path class="st0" d="M92.3,120.5c-7.7,7.6-15.4,15.2-23.2,22.7c-1.4,1.4-2.5,3.2-4.8,3.3c-0.7,0-1.3,0-2,0c0.2-3.9,3.2-5.3,6-7
		c6.8-7.9,14.6-14.9,22-22.3c0.4-0.4,1.2-0.4,1.8-0.7c0.1,0.7,0.2,1.3,0.3,2c-0.1,0.3-0.1,0.6-0.1,1
		C92.4,119.8,92.3,120.1,92.3,120.5z"/>
	<path class="st0" d="M68.4,139.5c-2,2.3-4,4.7-6,7c-0.3,0-0.7,0-1,0l0,0c-1.1-1.4-2.6-0.9-4-1c-1.3-0.7-2.7-1.3-4-2
		c5.7-1.9,9.4-5.9,12-11.1c0.5-0.2,0.9-0.2,1.3,0.1c0.9,1.2,1.3,2.5,0.7,4C67.4,137.6,67.2,138.7,68.4,139.5z"/>
	<path class="st0" d="M61.4,146.5c-2.8,1.4-3.7,5.1-7.1,5.7C56,149.5,57.4,146.3,61.4,146.5C61.4,146.5,61.4,146.5,61.4,146.5z"/>
	<path class="st0" d="M80.3,112.5c-0.3,0.3-0.6,0.7-0.9,1c-4.2,5.8-9.3,10.7-14.8,15.3c-0.5,0.1-0.9,0-1.3-0.3
		c-1.4-2.3-2.9-4.5-4.3-6.8c5.4-7.5,12.5-13.4,19.1-19.7c0.7-0.7,2-1.5,2.7,0.3c-0.1,1.8,0.4,3.6-0.4,5.4c0,1,0,1.9,0,2.9
		C80.4,111.1,80.4,111.8,80.3,112.5z"/>
	<path class="st0" d="M55.4,118.4c7-6.8,13.9-13.6,20.9-20.4c1.3-1.3,2.7-2.4,4-3.6c1,1.4,0.3,2.9,0.5,4.4
		c-6.5,7.8-14.1,14.6-21.4,21.7c-0.4,0.3-0.9,0.3-1.4,0.1C56.9,120.3,56,119.6,55.4,118.4z"/>
	<path class="st0" d="M58.1,120.6c6.5-5.1,11.8-11.6,17.9-17.2c1.4-1.3,3-2.6,4.4-3.9c0.6,0.7,0.6,1.3,0,2
		c-5.7,5.5-11.4,11.1-17.1,16.6c-1.3,1.3-2.8,2.4-4.1,3.5C58.8,121.3,58.4,121,58.1,120.6z"/>
	<path class="st0" d="M63.4,128.4c0.3,0.1,0.6,0.2,0.9,0.2c0.3,0.2,0.5,0.5,0.6,0.8c0,0.4-0.1,0.7-0.4,1c-3,2.7-6.1,5.4-9.1,8
		C56.5,133.9,61.4,132.3,63.4,128.4z"/>
	<path class="st0" d="M80.4,101.5c0-0.7,0-1.3,0-2c0-1.7,0-3.3,0-5c0-0.7,0.1-1.4,0.1-2c1.6,2.2,0.5,4.7,1,7.1
		c-0.5,2.7,0.7,5.6-1,8.1C80.4,105.5,80.4,103.5,80.4,101.5z"/>
	<path class="st0" d="M64.5,130.4c0-0.3,0-0.7,0-1c3.6-4.7,8.1-8.6,12.3-12.7c0.5-0.5,1.1-0.6,1.8-0.2c-0.1,1-0.2,1.9-0.2,2.9
		c-0.7,0.9,0.3,2.4-1.2,3c-0.5,0.7-1,1.4-1.6,2.1c-1.8,2-3.3,4.3-5.3,6.2c-1.1,1-2,2.6-4,1.9c-0.3,0-0.5-0.1-0.8-0.2
		C65.1,131.7,64.8,131.1,64.5,130.4z"/>
	<path class="st0" d="M78.6,116.5c-5.4,3.5-8.9,9.1-14.1,12.9c-0.1-0.2-0.2-0.5-0.2-0.8c4.6-5.5,9.6-10.6,15.2-15.2
		C79.4,114.6,79.5,115.7,78.6,116.5z"/>
	<path class="st0" d="M77.1,122.4c0.3-1,0.2-2.2,1.2-3c3.1,0.3,3.8-2.7,5.7-4.1c1.9-1.4,3.6-3.2,5.4-4.8
		C86.5,115.6,82.7,119.9,77.1,122.4z"/>
	<path class="st0" d="M66.2,132.6c3.7-2,5.6-6.2,9.4-8c0.1,3.1-4.2,4.4-3.2,7.9c-2.5,0.2-2.6,3.6-4.9,4
		C66.6,135.3,66.2,134,66.2,132.6z"/>
	<path class="st0" d="M114.4,93.5c-1.2,3.5-3.5,5.8-7,7C109.3,97.7,111.6,95.4,114.4,93.5z"/>
	<path class="st0" d="M103.4,104.5c-0.6,2.8-2.2,4.4-5,5C99.7,107.4,101.3,105.7,103.4,104.5z"/>
	<path class="st0" d="M74.4,146.5c-0.3-0.3-0.7-0.7-1-1c5.7-5.5,11.5-11,16.3-15.5C85.2,134.8,79.8,140.6,74.4,146.5z"/>
</g>
</svg>
