<?xml version="1.0" encoding="utf-8"?>
<!-- Generator: Adobe Illustrator 22.1.0, SVG Export Plug-In . SVG Version: 6.00 Build 0)  -->
<svg version="1.1" id="Camada_1" xmlns="http://www.w3.org/2000/svg" xmlns:xlink="http://www.w3.org/1999/xlink" x="0px" y="0px"
	 viewBox="0 0 252 254" style="enable-background:new 0 0 252 254;" xml:space="preserve">
<style type="text/css">
	.st0{fill:#FFFFFF;}
</style>
<path class="st0" d="M199.3,119c0-0.7-0.1-1.4-0.1-2.1c-0.3-1.4-1.7-2.6-0.7-4.1c0.5-0.6,1.1-0.9,1.9-1c0.6,0.4,1.2,0.8,1.8,1.2
	c0,0,0-0.1,0-0.1c1.6,1.9,0.9,3.5-0.6,5c-0.4,0.4-0.8,0.8-1.2,1.2C199.9,119.4,199.6,119.4,199.3,119z"/>
<path class="st0" d="M196.2,112.7c0-0.3,0-0.6,0-0.8c1.4-0.7,2.7-1.8,4.2-0.1c-0.4,0.4-0.9,0.8-1.3,1.2c-0.5,0.5-1.1,0.7-1.8,0.5
	C196.8,113.4,196.5,113.1,196.2,112.7z"/>
<path class="st0" d="M197.3,116.7c0-1.2,0-2.4,0-3.7c0.6,0,1.1,0,1.7,0c0.1,1.3,1.8,2.5,0.2,3.9C198.6,116.8,198,116.8,197.3,116.7z
	"/>
<g>
	<path class="st0" d="M118.2,161.6c-0.6,0.5-1.3,0.9-1.9,1.4c-0.3,0.8-0.7,1.4-1.5,1.7c-1.1,0.4-2.1,0.6-3.1,0
		c-1.2-0.9-1.8-2.1-1.7-3.6c0.1-0.8,0.4-1.6,0.9-2.3c0.8-0.7,1.8-1.1,2.8-1.4c1.2-0.2,2.4-0.9,3.8-0.5c1.3,0.8,2.6,1.7,2.4,3.5
		C119.6,161.2,119,161.6,118.2,161.6z"/>
	<path class="st0" d="M40.4,103.7c-0.7-0.7-1.3-1.3-2-2c-0.8-0.6-1.6-1.2-2.2-2.1c-1.1-1.7-3.2-3.1-1.2-5.5c1.5-1.2,3-0.9,4.5,0.2
		c1.4,1.6,3.4,2.4,4.8,3.9c0.7,1.1,1.6,2.1,1.6,3.5c-0.4,1.5-0.8,3-1.7,4.3c-0.4,0.4-0.8,0.6-1.3,0.7c-0.8,0-1.4-0.2-2-0.8
		c-0.3-0.4-0.4-0.9-0.5-1.3C40.4,104.2,40.4,104,40.4,103.7z"/>
	<path class="st0" d="M193.2,100.5c0.4,0.1,0.8,0.3,1.2,0.4c3.3,3.5,2.5,7.4,1.3,11.4c-1.4,1.1-3,1.2-4.5,0.3
		c-1.7-1.4-1.2-3.5-1.4-5.3c0.1-1.8-0.2-3.6,0.4-5.3C190.8,100.8,191.8,100.2,193.2,100.5z"/>
	<path class="st0" d="M168.4,93.8l0.4,0c1.1,0.3,2,0.7,1.8,2.1c-1,1.7-2.6,1.3-4.2,1.3c-0.5,0-1-0.1-1.5-0.1
		c-2.8-1.1-5.9-0.4-8.6-1.5c-1.6-1.6-3.8-1.8-5.8-2.3c-2-0.5-3.4-1.4-2.4-3.7c0.8-0.8,1.9-0.8,3-0.8c2.2,0.7,4.4,1.4,6.5,2.3
		c2.3-0.1,4.4,1,6.7,1.2C165.5,93,167.2,92.6,168.4,93.8z"/>
	<path class="st0" d="M175.3,95.6c2.7-0.2,5.5,1.4,8-0.7c0.3,0,0.7,0.1,1,0.1c0.8,0.6,1.7,1.2,1.6,2.5c-0.1,0.5-0.4,1-0.8,1.3
		c-3.6,1.5-7.5,1.7-11.4,1.8c-2.4-1.5-2.1-3.3-0.5-5.1C173.9,95.1,174.6,95.1,175.3,95.6z"/>
	<path class="st0" d="M185.4,97.7c0-0.3-0.1-0.6-0.1-0.9c-0.3-2.3,2.4-1.5,3.1-2.8c0.3-0.1,0.6-0.2,0.9-0.3c3.1-1.2,5.1-0.6,5.3,3.1
		c-0.4,0.3-0.7,0.7-1.1,1c-2.1,1.7-4.4,1.6-6.9,1C186.1,98.7,185.7,98.2,185.4,97.7z"/>
	<path class="st0" d="M126.3,86c1.4-0.1,2.7-0.1,4.1-0.2c0.8,0,1.6,0.1,2.4,0.1c1.8,1.1,4.4-0.6,6,1.5c0.2,0.5,0.2,1,0,1.6
		c-3.5,2.5-6.9,1.6-10.3,0C127.4,88.1,125.9,87.7,126.3,86z"/>
	<path class="st0" d="M188.4,94c-0.6,1.4-2,1.9-3.1,2.8c-0.3-0.6-0.7-1.2-1-1.8C185.7,94.9,186.8,93.4,188.4,94z"/>
	<path class="st0" d="M193.2,98.7c-2,0.1-4,0.1-6,0.2c-0.8,0.1-1.2-0.3-1.2-1c2.5,0,5,0,7.5,0C193.4,98.1,193.3,98.4,193.2,98.7z"/>
	<path class="st0" d="M146.2,147.7c-0.3,0.3-0.6,0.6-0.9,0.9c-1.3,0.1-2.5,0.1-3.8,0.2c-1.8,0.5-3.1,0-3.7-1.8
		c0.4-2.4,2.2-3.5,4.1-4.5c1.3-0.4,2.6-1.1,3.9-0.3c1.4,1.1,2,2.5,1.5,4.3C146.9,147,146.6,147.4,146.2,147.7z"/>
	<path class="st0" d="M132.3,154.7c-1,0-1.9,0.1-2.9,0.1c-1.5,0.7-2.8,0.9-3.7-0.9c0.1-3.7,2.4-4.5,5.5-4.5c1.5,0.6,2.7,1.5,2.1,3.4
		C132.5,153.3,132.4,154,132.3,154.7z"/>
	<path class="st0" d="M133.3,152.9c-0.7-0.7-1.4-1.4-2.1-2.2c-0.1-2.8,1.6-3.5,4-3.3c1.5,0.7,3.2,1.1,4.3,2.5
		C137.6,151.2,135.8,152.8,133.3,152.9z"/>
	<path class="st0" d="M139.5,149.9c-1.6-0.1-3.2-0.4-4.4-1.6c0-0.7,0.3-1.2,0.8-1.6c0.8-0.4,1.6-0.6,2.3,0.2c1.1,0.7,2.1,1.3,3.2,2
		C141,149.6,140.4,149.9,139.5,149.9z"/>
	<path class="st0" d="M195.2,120.7c-2.3,0.8-5.1,0.9-6.7,3.2c0,0.9-0.4,1.5-1.2,1.9c-0.8,0.3-1.6,0.3-2.4,0c-0.7-0.4-1.3-1-1.7-1.7
		c-0.5-1.4-0.1-2.6,0.8-3.6c1.4-1.7,3.7-2.2,5.2-3.7c0.6-0.4,1.1-0.9,1.7-1.2c1.1-0.4,2-1.2,3.2-1c1.3,0.3,2.6,1,4,1
		c0.7,0.1,1.3,0.5,1.7,1.1c0.3,0.7,0.3,1.4,0,2.1c-0.5,2.3-2.2,2.2-4,2.2C195.7,120.8,195.5,120.8,195.2,120.7z"/>
	<path class="st0" d="M126.2,153.6c1.1,0.4,2.1,0.8,3.2,1.2c-2.4,1.6-4.7,3.3-7.1,4.9c-1,0.3-2.1,0.5-3.1,0.8
		c-0.6-0.9-1.3-1.8-1.9-2.6c0-0.2,0-0.5,0-0.7c0.3-1.7,1.8-2.1,3.1-2.9c1.3-0.5,2.4-1.7,4-1.8C125.1,152.7,125.8,153,126.2,153.6z"
		/>
	<path class="st0" d="M110.4,160.9c0.3,0,0.6-0.1,0.9-0.2c0.4,1,0.7,2.1,1.1,3.1c-1,0.7-2,1.3-3,2c-0.9,0.6-1.9,0.6-3,0.4
		c-0.7-0.5-1-1.1-1-1.9c0.2-1.8,1.8-2.2,2.9-3C108.9,160.9,109.6,160.9,110.4,160.9z"/>
	<path class="st0" d="M106.4,165.9c1,0,2,0,3,0c-1,0.7-2,1.4-3,2c-0.3,0-0.7-0.1-1-0.1C104.9,166.7,105.4,166.2,106.4,165.9z"/>
	<path class="st0" d="M178.3,130c-2.3-0.4-4.1,1-6,2c-1.5,0.1-2.2,2.3-4,1.6c-1-0.7-2-1.4-1.9-2.9c0.5-2.1,2.5-2.6,3.8-3.9
		c0.7-0.5,1.5-1,2.3-1.4c0.4-0.1,0.9-0.3,1.3-0.4c0.9-0.3,1.7-0.7,2.6-0.6c0.5,0,0.9,0.2,1.3,0.4c0.8,1,2.2,1.6,2.5,3.1
		c0,0.3-0.1,0.6-0.1,0.9C179.6,129.2,178.9,129.6,178.3,130z"/>
	<path class="st0" d="M37.1,143.2c-1.7-0.5-2.6-1.5-2.7-3.3c-0.1-2.1,1.1-2.8,3-2.7c2.7-0.4,5-1.6,7.1-3.2c0.3,0.1,0.6,0,0.8-0.3
		c1.9-1.2,3.5-3.1,6-2.8c0.8-0.1,1.5,0.2,2.1,0.7c1,2.3-0.2,3.6-2.1,4.7c-1.7,0.9-3.5,1.7-5.1,2.7c-2.2,1.1-4.7,1.7-6.8,3.1
		c-0.4,0.3-0.7,0.5-1.1,0.8C38,143,37.6,143.1,37.1,143.2z"/>
	<path class="st0" d="M29.3,89.7c-1-1.6-1.9-3.2-2.9-4.8c1.3-2.5,3.5-3,6.2-3c6.6,0,13.1-0.2,19.7-0.3c4.4,0,8.7,0,13.1,0
		c6.4-1.5,12.9-1.4,19.3-1.3c5.7,0.9,11.5,1.5,17.2,0c0.8-0.3,1.7-0.3,2.5,0.1c3.2,2,6.9,1.5,10.3,2.4c0.5,0.3,0.8,0.8,1,1.3
		c0,0.6-0.3,1.1-0.8,1.5c-4.3,1.7-8.7,2.8-13.4,2.2c-15.3-0.5-30.4-4-45.8-3.5c-3,0.1-5.9,0.1-8.9,0.7c-2.8,0.5-5.6,0.2-8.4,0.3
		c-4.5,0.2-5,1-3.6,5c0.5,1.5,1,2.8,0.1,4.2c-1,2.8-2.5,1.4-3.9,0.5c-0.3-0.3-0.6-0.8-0.7-1.2C30.4,92.4,29.9,91.1,29.3,89.7z"/>
	<path class="st0" d="M34.3,94.9c-1.1-2-2.1-4.1-3.2-6.1c-2.5-4.7-2.4-4.9,2.7-4.9c3.8,0,7.6,0,11.4,0c7.4-1.2,14.8,0.6,22.2,0.1
		c0.8-0.1,1.7,0.3,1.9,1.2c0.3,1.2-0.4,1.9-1.3,2.4c-1.5,0.8-3.2,0.7-4.9,0.8c-6,0.1-11.9,0-18.8,0c6,3,6.3,8.5,8.2,13.1
		c0.4,1.4,0.9,2.9,1.5,4.3c0.5,1.4,0.4,2.7-0.8,3.7c-4.2,0.2-7.8-2.7-9-7.5c-0.3-1-0.7-2-1-3c-0.5-2.1-2-2.9-4-3
		c-1.4-0.3-2.8-0.6-4.1-0.9C34.9,95.4,34.6,95.3,34.3,94.9z"/>
	<path class="st0" d="M44.3,101.8c2.9,2.5,5.3,5.6,9,7c0.2,0,0.5,0,0.7,0c2.2,1.1,5.1-1.6,7,1.1c0.2,0.5,0.3,0.9,0.3,1.4
		c-0.1,0.5-0.3,0.9-0.6,1.3c-1,0.7-2.1,1.2-3.2,1.7c-1.3,0.8-2.7,1.1-4.2,0.5c-2.4-1.3-4.6-2.7-6-5.2c-0.6-0.4-1.2-0.8-1.7-1.1
		c0.1-1.7-1.1-2.3-2.3-2.9C43.3,104.3,43.4,103,44.3,101.8z"/>
	<path class="st0" d="M39.3,95.8c0.8-1.9,2.1-1.4,3-0.3c0.7,0.9,3.2,1.5,1,3.3C41.8,98.1,40.3,97.3,39.3,95.8z"/>
	<path class="st0" d="M186.5,100.8c1.4,1.1,3.2,0.7,4.8,1.1c0,1.6,0,3.3-0.1,4.9c-1.3,1.4-0.7,3.2-1.3,4.7c1.2,1.2,3.5,2,1.6,4.4
		c-3.3,0.4-6.7,0.6-9.7-1.3c-1-0.9-0.8-2.2-0.9-3.4c-0.9-5.9-1-6-7.9-3.4c-3.3-2.3-6.4-0.4-9.5,0.4c-2.4-0.1-4.4,1.6-6.9,1.3
		c-2.4-0.4-5,0.4-7.3-1.1c-0.4-0.4-0.5-1-0.5-1.5c1.4-2.2,3.9-1.6,5.8-2.5c2.8-0.5,5.5-1.3,8.3-2c0.8-0.1,1.5-0.1,2.3-0.1
		c3.3-0.2,6.5-0.5,9.6-1.7c2-0.5,4-0.6,6-1.1c1.5-0.2,3-0.3,4.5,0.2C185.9,100,186.3,100.3,186.5,100.8z"/>
	<path class="st0" d="M191.3,115.6c-0.3-3-2.9-2.5-6-3.3c2.1-0.3,3.1-0.4,4-0.5c0.7-0.6,1.3-0.6,2,0c1.4,0,2.8,0,4.2,0
		c0.3,0,0.5,0,0.8,0.1c0.4,0.3,0.6,0.7,0.6,1.1c-0.3,1.5-1.1,2.5-2.7,2.7c-0.8,0.3-1.7,0.6-2.5,1C191,116.5,190.9,116.1,191.3,115.6
		z"/>
	<path class="st0" d="M191.3,111.8c-0.7,0-1.3,0-2,0c0-1.9,0.2-3.8,2-5C191.3,108.5,191.3,110.1,191.3,111.8z"/>
	<path class="st0" d="M147.8,89.7c0.2-0.1,0.4-0.1,0.5,0.1c0.9,2.1,2.9,1.9,4.6,2.3c1.8,0.4,3.6,0.8,4.4,2.7c0.3,0.3,0.6,0.6,1,0.8
		c1.9,0.2,3.9,0.1,5.8-0.1c0.4-0.1,0.8,0,1.2,0.3l0,0c5.1,2.8,0.1,3.7-1,5.3c-2.7,0.7-5.3,1.4-8,1.9c-0.8,0.1-1.5-0.1-2.1-0.5
		c-1-1.9-3.1-2.3-4.8-3.2c-3.2-2.4-5.3,1.2-8,1.6c-5.6,1.7-10.3-0.8-15-3.3c-1.4-0.8-2.3-2-2.1-3.6c0.2-1.7,1.2-2.9,2.9-2.9
		c1.8,0,3.1-0.9,4.6-1.4c2.1,0,4.3,0.5,6.4-0.4c0.5-0.2,1-0.4,1.5-0.5C142.4,88.8,145.1,89.3,147.8,89.7z"/>
	<path class="st0" d="M164.3,99.6c-1-1.6,3.2-1.8,1-3.8c1.7,0,3.4-0.1,5.2-0.1c0.9,0.1,1.9,0.2,2.8,0.3c1.7,1.3,0.3,2.5-0.1,3.7
		c-1.2,2-3.2,1.5-5,1.6C166.7,101.2,165.1,101.3,164.3,99.6z"/>
	<path class="st0" d="M165.3,95.8c-0.3,0-0.7,0-1,0c-2.3,0.8-4.7,0.8-7,0c0-0.4,0-0.7,0-1.1C160.1,94.5,162.9,93.7,165.3,95.8z"/>
	<path class="st0" d="M133.3,90.8c-1.7,0.7-3.3,1.4-5,2c-0.9,0.3-2.2,0.4-2,1.6c0.1,1.2,1.4,1.2,2.4,1.3c1.8,0.1,3.5,0.3,4.7,2.1
		c2.2,3,5.1,2.2,8,1c2.8-1.8,6-0.9,9-1c1.1,0.3,2.1,0.9,3.2,0.9c3.8,0.1,1.1,1.8,0.8,2.9c-0.2,0.5-0.5,1-1,1.3
		c-4.5,1-9.3-0.1-13.8,1.3c-1.5,0.3-2.9,0.7-4.3,1.4c-0.7,0.3-1.3,0.6-2.1,0.8c-2.6,0.5-5.3,1.7-7.9-0.1c-0.4-0.2-0.8-0.5-1.2-0.8
		c-2.1-2.4-5-2-7.7-2c-4.1,0.5-8.3,2.2-11.7-1.6c-0.6-3.6,2.9-4.8,4.6-6.9c2.1-2.6,4.7-4.8,7.1-7.2c1.5-0.7,3.1-1.1,4.5-2
		c1-0.6,2.2-0.2,3.3-0.5c1-0.5,1.3,0.7,2.1,0.8c1,0.3,1.9,0.6,2.9,1c0.1,2.3-1.7,1-2.5,1.4c2.1,0.4,4.4,0.6,6.5,1.2
		c0.2,0.3,0.3,0.6,0.3,0.9C133.4,90.7,133.3,90.8,133.3,90.8z"/>
	<path class="st0" d="M124.2,85.2c-1,0.3-2,0.6-2.9,0.9c-0.4,0.3-0.9,0.6-1.4,0.7c-1.5,0.1-2.7-0.1-2.8-2c0.7-0.6,1.4-0.6,2.2-0.2
		C120.9,84.8,122.6,85,124.2,85.2z"/>
	<path class="st0" d="M133.3,89.8c-1.5-0.1-2.9-0.2-4.4-0.4c-0.7-0.1-1.9-0.1-1.7-1.2c0.1-0.5,1.3-0.9,1.9-1.3
		c2.8,1.8,6,1.8,9.1,1.9c0.3,0.2,0.4,0.4,0.3,0.6c-0.1,0.2-0.2,0.3-0.3,0.3l0,0C136.6,90.5,135,90.9,133.3,89.8z"/>
	<path class="st0" d="M138.3,89.8c0-0.3,0-0.7,0-1c0-0.4,0-0.7,0-1.1c1.6,0,3.2,0.1,4.8,0.1c1.6,0.6,3.1,1.2,4.7,1.8
		C144.6,89.7,141.5,89.8,138.3,89.8z"/>
	<path class="st0" d="M41.4,146.8c-0.1-0.2-0.1-0.5-0.2-0.7c-0.4-0.8-1.6-1.3-1-2.5c0.5-0.6,1.2-0.9,2-0.9c2.5,0.8,4.7,2.4,7.2,3.1
		c0.4,0.3,0.7,0.7,0.9,1.1c0.3,1,0.2,1.9-0.4,2.7c-0.2,0.1-0.4,0.3-0.6,0.4c-0.7,0-1.4,0-2,0c-0.6-0.1-1.1-0.1-1.7-0.2
		C44.4,148.3,43.4,146.8,41.4,146.8z"/>
	<path class="st0" d="M57.6,154.6c-1.4-0.9-2.9-1.9-4.3-2.8c0.1-0.2,0.2-0.4,0.4-0.6c1-0.9,2.3-0.8,3.5-0.8c0.7,0,1.4,0,2.1,0.1
		c1.5,0.3,2.8,0.9,4.4,0.9c0.6,0,1.3-0.1,1.9-0.2c1.3-0.2,2.6-0.7,3.9-0.8c1.2-0.1,2.3-0.6,3.5-0.5c1.1,0.3,1.8,1,2,2.1
		c-0.7,3.9-4.5,2.4-6.6,3.9c0,0,0,0,0,0C64.4,157.7,61,155.9,57.6,154.6z"/>
	<path class="st0" d="M49.3,147.8c0-0.3,0-0.7,0-1c-0.8-1.9-5.1,0.1-4.2-3.7c0.8-1.3,1.9-1.9,3.4-1.8c5.8,0.5,7.3,2,7.5,7
		c0.1,1.8-0.4,2.9-2.3,3.1c-0.2,0.1-0.3,0.3-0.4,0.4c-1.3-0.6-2.7-1.3-4-1.9c0,0,0.4-0.3,0.4-0.3C49.9,148.9,49.6,148.4,49.3,147.8z
		"/>
	<path class="st0" d="M100.2,168.6c1.1-1.3,2.1-2.5,3.2-3.8c0.1-0.2,0.1-0.4,0.2-0.6c0.9-0.8,1.7-1.5,2.7-0.1c0,0.6,0,1.2,0.1,1.8
		c-0.4,0.6-0.7,1.2-1.1,1.9c-1.3,0.7-2.6,1.4-4,2.2c-0.3,0-0.7,0-1,0c-0.3-0.3-0.4-0.5-0.3-0.8C100,168.8,100.1,168.6,100.2,168.6z"
		/>
	<path class="st0" d="M100.2,168.6c0,0.4,0.1,0.8,0.1,1.3c-0.9,1.4-2.5,1.7-3.9,2.2c-0.4-0.3-0.6-0.7-0.6-1.3c0.1-1.6,1.2-2,2.5-2.2
		C98.9,168.7,99.6,168.7,100.2,168.6z"/>
	<path class="st0" d="M96.2,170.7c0.1,0.5,0.1,1,0.2,1.4c0,0.2,0,0.5-0.1,0.7c-1.4,0.4-2.7,1.4-4.3,0.9c0.5-1.7,2.1-2.1,3.2-3.1
		C95.6,170.2,95.9,170.3,96.2,170.7z"/>
	<path class="st0" d="M150.3,144.2c-1.9,0-2.4,2.2-4,2.7c-0.3-1.3-0.7-2.6-1-3.9c-0.1-2.4,2-3.1,3.5-4.2c2.8-1.2,5.9-1.9,8.2-4.1
		c1.2-0.4,2.3-1.1,3.6-0.6c1.4,0.9,2.4,2,1.7,3.8c-1.6,0.1-2.8,1-3.9,2.1C155.2,140.4,153.2,143.1,150.3,144.2z"/>
	<path class="st0" d="M162.2,137.7c-0.6-0.9-1.3-1.8-1.9-2.8c0.5-2.7,2.3-3.5,4.8-3.4c1.1,0.4,1.8,1.2,2.3,2.3
		c-0.9,1.9-2.8,2.6-4.3,3.9c0,0-0.5,0-0.5,0L162.2,137.7z"/>
	<path class="st0" d="M167.4,133.9c-0.7-0.4-1.5-0.8-2.2-1.2c0-1.4,0.4-2.3,2.1-1.6c0.3,0.9,0.7,1.8,1,2.7
		C168,133.8,167.7,133.9,167.4,133.9z"/>
	<path class="st0" d="M191.3,115.6c0.1,0.4,0.2,0.8,0.3,1.1c-0.3,0.4-0.7,0.7-1,1.1c-1,0-1.9,0.3-2.8,0.4c-1,0.1-1.9,0.1-2.9,0.1
		c-1.7-0.4-3.4-0.8-5.2-0.9c-1.6-0.1-3.2-0.1-4.8-0.2c-0.9-0.1-1.6-0.5-2.1-1.2c-0.4-0.8-0.4-1.7,0.1-2.5c1.3-1.5,3.1-1.1,4.8-1.2
		c1.1,0,2.2,0,3.3,0.4c0.5,0.3,0.9,0.6,1.2,1.1C185.2,114.7,188.7,113.2,191.3,115.6z"/>
	<path class="st0" d="M180.3,127.9c-1.4-0.2-2.6-0.8-3.1-2.2c0.4-2.9,2.7-2.9,4.8-3.2c0.8,0.1,1.5,0.6,2,1.2
		c0.4,0.4,0.8,0.8,1.3,1.2c0,0.2,0,0.5-0.1,0.7c-1,1.3-2.8,1.2-4.1,2.1C180.9,127.8,180.6,127.8,180.3,127.9z"/>
	<path class="st0" d="M40.3,143.9c0.3,0.7,0.6,1.5,0.9,2.2c-1.2-0.5-2.5-1-3.7-1.5c0-0.3,0-0.5,0.1-0.8
		C38.5,143,39.4,143,40.3,143.9z"/>
	<path class="st0" d="M40.3,143.9c-0.9,0-1.8,0-2.7-0.1c-0.3-0.1-0.4-0.3-0.4-0.6c0.1-0.5,0.2-0.9,0.3-1.4c2.6-1.7,4.9-1.9,6.2,1.6
		c-0.2,0.7-0.6,0.8-1.3,0.5C41.6,143.8,40.9,143.9,40.3,143.9z"/>
	<path class="st0" d="M53.7,151.4c0.3-4.2-0.2-7.8-5.4-8.6c-1.4-0.3-1.8-1.6-2.3-2.7c-0.4-0.7-0.8-1.4-0.8-2.3
		c2.7-2,5.4-3.9,8.1-5.9c0.4-0.6,1-0.9,1.7-1c2.1,0.5,3.6-0.6,4.9-2.1c0.4-0.2,0.9-0.3,1.4-0.4c0.7,0,1.5,0,2.2,0.2
		c1.5,2.1,4.6,1,6.1,3c-0.4,3.8-4.7,4.4-6.1,7.2c0.1-0.1-0.1,0.1,0,0c2-1.4,2.8-4.6,6.1-3.7c1.7,1.1,1.7,2.8,1.8,4.5
		c0.2,1,0.5,1.9,0.8,2.9c0.3,2.6-0.5,5.1-1.4,7.5c-0.4,0.7-0.8,1.3-1.4,1.9c-1.3,0.3-2.7,0.7-4,1c-2.5-1.9-5.1-2.4-8-1.1
		C56.1,151.7,54.9,151.5,53.7,151.4z"/>
	<path class="st0" d="M47.3,138.8c1.6,1,1.8,2.4,1,4c-1,0.3-2,0.7-3,1c-0.7,0.6-1.3,0.6-2,0c-1.7-1.6-3.7-2-5.9-2c0-0.3,0-0.6,0-0.9
		C40.6,139.6,43.6,137.7,47.3,138.8z"/>
	<path class="st0" d="M61.3,129.8c-0.3,0-0.6,0-0.9,0c-1.1,2.3-2.9,2.6-5.1,1.9c-0.6,0-1.3,0.1-1.9,0.1c-0.8,0-1.5-0.1-2.3-0.1
		c0.8-0.6,1.6-1.2,2.5-1.8c0.8,0,1.5-0.1,1.8-1c1.7-2.1,3.9-3.4,6.6-3.8c1.5-0.2,3.1-1.1,4.5,0.3C67.5,130.3,62.8,128.1,61.3,129.8z
		"/>
	<path class="st0" d="M47.3,138.8c-3.3,0.7-6.6,1.4-9.9,2c2.2-2.1,5-2.6,7.9-3C45.9,138.1,46.6,138.5,47.3,138.8z"/>
	<path class="st0" d="M51.3,102.8c-1.7-1.1-2.9-2.5-3-4.8c-0.3-4.4-2.8-6.9-7.3-7.2c-1.7-0.1-3.6-0.3-3.8-2.4
		c-0.2-2.6,2.3-2.8,3.9-2.9c5.1-0.1,10.2,0.2,15.4,0.3c3.6,0.1,7.1,0,10.7-0.5c-7.3,0.1-14.5-1.5-21.8-1.5c1.8-1.1,3.8-0.9,5.8-1
		c14.9-0.5,29.8,0.6,44.7,1.9c1.8,0.2,3.7,0.1,5.5,0.1c4.2,0.9,8.5,0.4,12.7,0.5c0.8,0,1.7-0.3,2.3,0.6c0.7,1.1,0,1.9-0.7,2.6
		c-4.9,5-9.4,10.5-15.1,14.7c-2.4,0.2-4.8,0.6-7.2,1.1c-2.7,0.6-5.5,1.2-8.3,1c-2.6,0.1-5.1,0-7.7,0c-1.7-0.1-3.6,0.3-5-1.1
		c-0.5-1.3,0.2-1.8,1.4-1.8c2.4,0,4.9-0.3,7.2,0.1c-3.8-0.3-7.7-0.6-11.5,1.1c-2.5,0.7-5.1,0.8-7.7,0.8c-2.7-1.1-5.5-0.8-8.3-0.4
		C52.5,103.9,51.8,103.5,51.3,102.8z"/>
	<path class="st0" d="M100.3,101.8c5-4.8,10-9.6,15.5-14.8c-5.2-1.8-10.1-0.2-14.5-2.2c4.7,0,9.5-0.1,14.2-0.1
		c0.6,0.1,1.2,0.2,1.8,0.2c1,0.4,2,0.7,2.9,1.1c0.4,2.4-1.9,1.9-2.9,2.8c-4,4-8,8-12,12c-0.7,1.3,1.5,2.6-0.1,3.9
		c-1.3,0.8-2.7,1.2-4.2,1.5c-1,0.1-2.1,0.1-3.1-0.1c-4.1-1.3-8.6,1.6-12.6-0.8c-0.4-0.5-0.4-1,0-1.5c2.7-0.3,5.3-0.7,8-1
		C95.5,101.5,98.1,103.1,100.3,101.8z"/>
	<path class="st0" d="M53.3,108.8c-0.3-1-0.7-2-1-3c-0.9-1.3-0.3-2.1,1-2.5c0.8-0.3,1.7-0.4,2.6-0.2c2.2,0.8,4.1,2.1,2.8,4.7
		C57.6,109.9,55.5,110.4,53.3,108.8L53.3,108.8z"/>
	<path class="st0" d="M53.3,103.8c-0.3,0.7-0.7,1.3-1,2c-1.6-0.6-1.5-1.7-1-3c0.7,0,1.3,0,2,0c0.3,0.2,0.3,0.4,0.3,0.7
		C53.5,103.7,53.4,103.8,53.3,103.8z"/>
	<path class="st0" d="M53.3,108.8c3.6-0.5,6.3-1.3,2-5c1.6-2,4.4-0.1,6-2c2.7,0,5.3,0,8,0c0.7,1.1,2.3,0.9,3,2c1.7,0,3.3,0,5,0
		c0.4,2.6-1.6,2.5-3.1,2.4c-2.1,0-3.2,1-4.3,2.6c-3.1,1.3-5.9,3.9-9.6,2c-1.4-0.8-2.8-0.2-4.2,0.2C54.3,111.5,53.5,110.6,53.3,108.8
		z"/>
	<path class="st0" d="M60.3,110.8c3-1,6-2,9-3c3.4-1.9,7.1-2.6,10.9-2.6c1.7,0,3.4,0.2,5.1-0.4c4.3,0.7,8.7-2.4,13,0
		c-0.1,0.2-0.2,0.4-0.3,0.7c-2.5,1.4-5.3,2.3-7.8,3.7c-1.2,0.2-2.4,0.1-3.7,0.2c-3-0.2-5.6,1.3-8.4,1.9c-1.1,0.3-2.2,0.7-3.4,1.1
		c-0.9,0.3-1.8,0.7-2.7,0.9c-0.9,0.2-1.8,0.9-2.8,0.8c-2.7-0.2-5.3,2.1-8.1,0.7c-0.9-0.8-1.1-1.7-0.8-2.8
		C60.3,111.5,60.3,111.2,60.3,110.8z"/>
	<path class="st0" d="M60.3,111.9c0.3,0.7,0.7,1.3,1,2c0.6,0.9,0.4,1.6-0.3,2.4c-0.5,0.4-1.2,0.6-1.8,0.4c-0.6-0.2-1.3-0.5-1.9-0.7
		c-1.6-0.2-3-1-4.1-2.1c1.4-0.3,2.7-0.7,4.1-1C58.2,112.2,59.6,113,60.3,111.9L60.3,111.9z"/>
	<path class="st0" d="M60.3,111.8c-0.6,1.6-1.8,1.5-3.1,1C58.3,112.5,59.3,112.2,60.3,111.8z"/>
	<path class="st0" d="M149.3,106.8c0,0.3,0,0.7,0,1c0.6,0.7,0.6,1.5,0.3,2.3c-2.2,2.1-5,0.9-7.5,1.2c-2.7,0.3-5.5-0.6-8.2,0.7
		c-1.5,0.5-2.9,1.1-4.3,1.7c-0.7,0.4-1.5,0.5-2.3,0.4c-1.5-0.3-3,0-4.6,0.1c-1.5-0.1-3.2,0.4-4.5-0.8c-0.4-0.4-0.5-0.9-0.5-1.5
		c1.2-2.4,3.8-2.4,5.8-3.5c0.5-0.1,1-0.2,1.5-0.3c1.7-0.3,3.3-0.9,5.1-1c1.7-0.1,3.3-0.5,5-0.9c0.7-0.1,1.5-0.1,2.2-0.2
		c3.6-0.5,7.2-1.3,10.9-1.6c0.5,0.2,0.9,0.5,1.2,0.9C149.7,105.9,149.7,106.4,149.3,106.8z"/>
	<path class="st0" d="M157.2,107.8c2.2-0.1,4.1-1.1,6.1-2c2.4,2.1,5.9-0.9,8.2,1.8c0.2,3.2-2.6,2.9-4.4,3.8
		c-0.2,0.2-0.5,0.5-0.7,0.7c-0.1,0.3-0.3,0.6-0.5,0.9c-0.2,0.4-0.4,0.6-0.6,0.9c-0.8,0.7-1.1,1.7-1.9,2.5c-4,2.3-7.4,0-11-1.5
		c-0.4-0.3-0.7-0.7-1-1.2c-0.4-1.6,0.3-2.9,1.1-4.2C154,108.4,155.9,108.8,157.2,107.8z"/>
	<path class="st0" d="M173.3,106.8c2-2.8,5.1-3.1,7.9-2.4c3.3,0.8,0.7,4.4,2.1,6.4c-0.5,0.5-1.1,0.8-1.8,0.8
		c-0.5-0.1-0.9-0.3-1.2-0.5c-0.5-0.5-0.9-0.9-1.5-1.3c-1.4-1.4-3.7-1-5.2-2.3C173.5,107.2,173.4,107,173.3,106.8z"/>
	<path class="st0" d="M171.3,107.8c-2.8,0-5.7,0.2-8-2c3.4-0.1,6.9-1.9,10,1c0,0,0,0,0,0c0.3,0.4,0.3,0.9,0,1.3
		C172.6,108.4,171.9,108.4,171.3,107.8z"/>
	<path class="st0" d="M151.3,105.8c3.9-1.4,7.9-2,12-2c-2.5,1.5-5.3,1.8-8.1,2.1C153.9,106.5,152.6,106.6,151.3,105.8z"/>
	<path class="st0" d="M157.2,107.8c-1.1,1.1-2.4,1.7-3.9,2c-1.3,1.4-2.7,1.3-4,0c0-0.7,0-1.3,0-2C152,107.8,154.6,107.8,157.2,107.8
		z"/>
	<path class="st0" d="M187.9,106.5c0.2-0.1-0.5,0.3-1.1,0.3c-1.1,0.1-1.3-0.7-1.2-1.6c0.1-0.7,0.4-1.3,1.2-1.2
		C187.6,104,187.9,104.7,187.9,106.5z"/>
	<path class="st0" d="M165,103.7c0.1-0.3,0.2-0.6,0.4-0.8c1.4-2.3,3.7-0.5,5.5-1.3c0.5-0.2,1-0.2,1.4,0.1c1,0.1,2,0.2,3,0.2
		C172.1,103.9,168.6,104.1,165,103.7z"/>
	<path class="st0" d="M151.3,105.8c1.3,0,2.6,0.1,3.9,0.1c-1.8,1.1-3.9,0.9-5.9,0.9c0-0.3-0.1-0.5-0.1-0.8
		C149.9,106,150.6,105.9,151.3,105.8z"/>
	<path class="st0" d="M181.3,110.8c0.7,0,1.3,0,2,0c-0.3,1-0.6,2-1,3c0,0-0.5,0-0.5,0l-0.5,0c-0.5-0.5-0.8-1.1-0.8-1.8
		C180.7,111.5,180.9,111.1,181.3,110.8z"/>
	<path class="st0" d="M150.3,97.8c-2.9,1.3-6,0.9-9,1c2.7-3.2,7.5-1.7,10.3-4.7c0.4-0.4,1.8,0.1,1.9,1
		C153.8,97.6,151.8,97.5,150.3,97.8z"/>
	<path class="st0" d="M168.5,99.9c-0.1,0.2-0.3,0.5-0.4,0.7c-0.4,0.8-1.2,1.1-2,1.2c-3.3,0.6-6.5,0.8-9.8,0.2c0,0,0.1-0.4,0.1-0.4
		c2.5-1.3,5.2-1.6,7.9-2.1C165.7,99.7,167.1,99.8,168.5,99.9z"/>
	<path class="st0" d="M133.3,89.8c1.7,0,3.3,0,5,0c-1.5,1-3.1,2-5,1C133.3,90.5,133.3,90.2,133.3,89.8z"/>
	<path class="st0" d="M157.3,95.8c2.3,0,4.7,0,7,0C162,97.1,159.6,97.1,157.3,95.8z"/>
	<path class="st0" d="M125.3,104.8c2.7,0.9,5.3,0,7.9-0.1c0.3,0.5,0.3,1.1,0,1.6c-1.9,1.9-4.5,1.3-6.7,1.9c-5.4,0.1-10.8,0.1-16.1,0
		c-1.8,0-3.6,0.3-5.1-1.2c-0.4-2.9,1.9-2.6,3.5-2.7c2.6-0.2,5.2-0.1,7.7-0.1C119.5,104.4,122.4,104,125.3,104.8z"/>
	<path class="st0" d="M105.3,103.8c-0.9-1-1.6-2,0-3c3.8,2.7,8,1,12,1c0.6,0.6,0.8,1.3,0.7,2.1c-0.1,0.5-0.4,0.9-0.9,1.2
		c-1.3,0.2-2.7,0.2-4,0C110.6,104.1,107.6,105.8,105.3,103.8z"/>
	<path class="st0" d="M153.3,101.8c-0.3,0.3-0.7,0.7-1,1c-1.5,0.8-3.5,0.4-4.7,1.8c-1.2,0.3-2.3,0.7-3.6,0.7
		c-1.6-0.1-3.4,0.3-4.9-0.6c-0.6-0.5-0.8-1.2-0.8-1.9C143.2,100.9,148.3,102.1,153.3,101.8z"/>
	<path class="st0" d="M117.3,103.8c0-0.7,0-1.3,0-2c2.8,0.3,5.9-0.9,8.5,1.2c0.1,0,0,0.3-0.1,0.4c-0.1,0.1-0.2,0.2-0.4,0.3
		C122.7,105.3,120,105.3,117.3,103.8z"/>
	<path class="st0" d="M117.3,103.8c2.7,0,5.4,0,8,0c0,0.3,0,0.7,0,1c-2.5,1.4-5.3,0.8-8,0.9c-0.7-0.2-0.8-0.5-0.1-0.9
		C117.3,104.5,117.3,104.2,117.3,103.8z"/>
	<path class="st0" d="M139.2,103.7c1.4-0.1,2.7-0.8,4.1,0.1c-1.3,3.5-4.7,2-7.1,3c-1.1,0.1-2.2,0.1-2.9-1.1c0-0.3,0-0.6,0-0.9
		c0.3-0.3,0.7-0.6,1-0.9C135.9,103,137.6,103.2,139.2,103.7z"/>
	<path class="st0" d="M117.3,88.8c1-0.9,2-1.9,2.9-2.8c0.4,0,0.7,0,1.1,0C120.7,88.1,119.2,88.7,117.3,88.8z"/>
	<path class="st0" d="M139.2,103.7c-1.6,0-3.3,0.1-4.9,0.1c1.2-0.9,2.6-1,4-1.1C138.6,103.1,138.9,103.4,139.2,103.7z"/>
	<path class="st0" d="M43.3,143.8c0.7,0,1.3,0,2,0c1.5,1.1,3.6,0.4,4.9,1.3c2,1.4-0.3,1.3-0.9,1.7c-2.8,0-5.3-0.6-7-3
		C42.6,143.8,43,143.8,43.3,143.8z"/>
	<path class="st0" d="M49.3,147.8c0.6,0.2,1.5,0.4,1.6,0.8c0.2,0.8-0.6,0.9-1.3,1.1C49.1,149.1,48.9,148.5,49.3,147.8z"/>
	<path class="st0" d="M80.1,149.7c-1.9,0.7-3.9,1.4-5.8,2.2c-0.7-0.3-1.4-0.7-2-1c-0.1-0.2-0.2-0.5-0.3-0.7c2-3.7,4.9-6.2,9.2-6.6
		c1.3,0.2,2.6,0.5,3.5,1.5c0.3,0.4,0.5,0.9,0.6,1.5c0,0.5-0.1,1-0.4,1.5C83.6,149.3,82.1,150.2,80.1,149.7z"/>
	<path class="st0" d="M57.3,151.8c2.1-3.2,5.5-2.2,8.1-1.7c3.5,0.6,0,1.8-0.2,2.8c-0.3,0.3-0.7,0.6-1,0.9c-1.6-0.9-3.5-0.8-5-2
		C58.6,151.8,58,151.8,57.3,151.8z"/>
	<path class="st0" d="M59.3,151.8c1.9,0.1,3.6,0.6,5,2C62.3,153.9,60.5,153.6,59.3,151.8z"/>
	<path class="st0" d="M69.3,151.8c0-0.7,0-1.3,0-2c1.4-1.1,2.3-0.4,3,0.9c0,0,0,0,0,0C71.3,151.2,70.3,151.5,69.3,151.8z"/>
	<path class="st0" d="M165.3,112.8c0-0.3,0-0.7,0-1c1-1.3,2.6-0.9,3.9-1.3c1.4-0.2,2.8-0.2,4.2,0c1.8,0.9,4.8,0,4.9,3.4
		c-1.7,0-3.3,0-5,0.1c-1,0.7-1,2.2-2.2,2.8c-0.5,0.1-1,0.3-1.5,0.4c-1.6,0.4-3.1,0.5-4.6-0.4c-0.4-0.4-0.6-0.9-0.7-1.5
		C164.4,114.2,164.7,113.5,165.3,112.8z"/>
	<path class="st0" d="M178.3,113.8c-1.7-0.7-3.3-1.3-5-2c2.7-2.2,5.3-2,8,0c0,0.7,0,1.3,0,2C180.3,113.8,179.3,113.8,178.3,113.8z"
		/>
	<path class="st0" d="M171.3,115.8c-0.4-0.5-1.2-1.3-1.2-1.4c0.9-1,2.1-0.4,3.2-0.6c0,0.6-0.1,1.1-0.1,1.7
		C172.7,116.3,172,116.3,171.3,115.8z"/>
	<path class="st0" d="M171.3,115.8c0.7-0.1,1.3-0.1,2-0.2c0.7,0.1,1.4,0.2,2.1,0.3c-0.1,0.2-0.1,0.4-0.2,0.6
		c-1.2,1.9-2.9,0.5-4.4,0.8c-0.6-0.4-0.6-0.8-0.2-1.3C170.8,115.9,171,115.9,171.3,115.8z"/>
	<path class="st0" d="M72.3,150.8c-1-0.3-2-0.6-3-0.9c-0.1-2.7,0.2-5.4,1-8c0.1-0.9-0.1-1.6-1-2c-0.8-1.3-0.2-2.7,0-4
		c-1.1-1.7,0.1-2.4,1.3-3.1c4.7,0.3,8.5,2.8,12.3,5.1c1.8,1.1,1,3.3,0.8,5c-0.3,1.2-0.6,2.5-2.4,2C77.9,146.2,76.3,150.3,72.3,150.8
		z"/>
	<path class="st0" d="M71.3,133.8c-1,0.3-1.7,1-2,2c-3.7,0.7-4.8,4.7-8,6c-1.1-1.5-0.2-2.3,1-3c1.8-2.8,4.5-4.8,7-7
		c0.2-0.2,0.3-0.4,0.5-0.5c0.9-0.5,1.8-0.4,2.6,0.3C73,132.8,72.1,133.3,71.3,133.8z"/>
	<path class="st0" d="M69.3,131.8c-1.2,0.3-2.5,0.4-3.7,0.9c-3.8,1.4-2.9-0.8-2.3-2.9c1.8-1.7,3.6-3.7,6.5-1.9
		C70.7,129.3,70.4,130.6,69.3,131.8L69.3,131.8z"/>
	<path class="st0" d="M62.3,138.8c-0.3,1-0.7,2-1,3c-0.5,1.3-1.2,3.3-2.9,2.1c-1.6-1.1,0.1-2.6,0.9-3.7
		C60,139.2,61.1,138.9,62.3,138.8z"/>
	<path class="st0" d="M69.3,127.8c-2,0.7-4,1.3-6,2c-0.7,0-1.3,0-2,0c1.7-1.3,3.3-2.6,5-4c0.3-0.4,0.6-0.7,1.1-0.9
		c0.7-0.1,1.4-0.1,2,0.4c0.5,0.6,0.6,1.2,0.4,1.9C69.6,127.5,69.5,127.6,69.3,127.8z"/>
	<path class="st0" d="M55.3,131.8c1.7-0.6,3.4-1.3,5.1-1.9C59.8,134.1,58.9,134.4,55.3,131.8z"/>
	<path class="st0" d="M69.3,139.8c0.8-0.4,1.6-0.7,2.1,0.3c0.5,1-0.3,1.4-1.1,1.8C70,141.2,69.6,140.5,69.3,139.8z"/>
	<path class="st0" d="M66.9,125.7c0.9-0.6,1.8-1.2,2.7-1.8c0.3,0,0.5,0,0.7-0.2c1.4-1,2.5-2.3,4-3.1c0.5-0.1,1-0.2,1.5-0.2
		c1.3,0,2.6-0.1,3.9,0.5c0.7,0.5,1.1,1.2,1.3,2.1c0,0.6-0.2,1.1-0.6,1.5c-3.5,1.5-7.1,3-11,1.4C68.5,125.8,67.7,125.7,66.9,125.7z"
		/>
	<path class="st0" d="M85.3,104.8c0.2,0.6,2.2,1.9,0.4,1.7c-5.6-0.4-10.9,1-16.4,1.3c0.9-4.8,5.7-1.9,8-4c2.7,0,5.3,0,8,0
		C85.3,104.2,85.3,104.5,85.3,104.8z"/>
	<path class="st0" d="M72.3,103.8c-1.4-0.1-2.5-0.6-3-2c3.9,0,7.8,0,11.7,0C78.2,103.3,75,102.1,72.3,103.8z"/>
	<path class="st0" d="M61.3,101.8c-1.4,2.6-3.8,1.8-6,2c-0.7,0-1.3,0-2,0c0-0.3,0-0.7,0-1C55.8,101.3,58.6,102,61.3,101.8z"/>
	<path class="st0" d="M100.3,101.8c-2.2,1.4-4.6,0.9-7,1C95.5,101.4,97.9,101.9,100.3,101.8z"/>
	<path class="st0" d="M117.3,104.8c0,0.3,0.1,0.6,0.1,0.9c-4,0.5-8.2-0.8-12.1,1.1c-0.4,0.8-1.2,1.2-2,1.3c-2,0.1-4,0.5-5.2-1.8
		c-0.2-0.6-0.1-1.1,0.3-1.6c0,0,0,0,0,0c1,0,2,0,3,0c4-0.8,8-0.8,12,0C114.6,104.8,115.9,104.8,117.3,104.8z"/>
	<path class="st0" d="M113.3,104.8c-4,0-8,0-12,0c1.2-0.9,2.6-1,4-1C108,104,110.8,103.3,113.3,104.8z"/>
	<path class="st0" d="M98.3,105.8c1.7,0.4,3.5,0.8,5.2,1.2c0.2,0.6,0,1.1-0.3,1.5c-0.9,0.8-1.9,0.8-3,0.9c-2.4,0.1-4.8,0.6-7.2,1
		c-2.2-0.1-4.5,0.6-6.5-0.9c-0.4-0.5-0.5-1-0.1-1.5c1.4-0.1,2.7-0.2,4.1-0.3C92.9,106.4,95.3,104.9,98.3,105.8z"/>
	<path class="st0" d="M86.3,107.8c0,0.3,0,0.6,0,1c0.1,0.8,0.1,1.6-0.3,2.3c-0.9,1.2-2.2,1.2-3.5,1.2c-1.3-0.2-2.5-0.7-3.7-1
		c-0.8-0.3-1.3-0.8-1.5-1.6C80.1,108.6,83.2,108,86.3,107.8z"/>
	<path class="st0" d="M98.3,105.8c-2.6,0.6-5.3,1.2-7.9,1.8c2.1-2.5,4.9-2.8,7.9-2.7C98.3,105.1,98.3,105.5,98.3,105.8z"/>
	<path class="st0" d="M76.4,111c-0.7-0.1-1.4-0.2-2.1-0.3c1-0.4,1.9-0.8,2.9-1.1c0.7,0.1,1.5,0.2,2.2,0.3
		C79,112.1,77.7,111.5,76.4,111z"/>
	<path class="st0" d="M127.3,111.9c0.7,0,1.3,0,2,0c2-1.2,3.2,0.5,4.7,1.2c0.5,0.6,0.7,1.3,0.7,2c0,0.4-0.1,0.8-0.2,1.2
		c-0.1,0.3-0.3,0.6-0.5,0.9c-0.1,0.4,0,0.8,0.1,1.3c0.2,0.7,0,1.3-0.3,1.9c-1.7,1.1-3,2.6-4.7,3.8c-4.8,0.3-9-0.6-11.6-5.1
		c-0.3-2.8,3.4-2.5,3.8-4.8c0.8-0.8,1.9-0.9,2.9-1.3C125.5,112.8,126.5,112.8,127.3,111.9z"/>
	<path class="st0" d="M149.3,109.8c1.3,0,2.7,0,4,0c0.7,1,3,0.6,2.5,2.2c-0.4,1.2-2.3,0.6-3.5,0.8c-1,0.9-2.2,1.5-3.5,0.7
		c-2.6-1.8-5.3-1.1-7.9-0.2c-1.5,0.3-2.9,0.9-4.4,0.8c-1.9-0.1-4.3-0.1-3.2-3.3C138.5,108.7,143.9,109.8,149.3,109.8z"/>
	<path class="st0" d="M118.3,112c0,0.3,0,0.6,0,0.8c0.1,0.8-0.2,1.5-0.8,2c-1.9,0.6-3.4,2-5.3,2.8c-3.6,0.7-7.2,1.3-10.9,1.8
		c-1.1,0.1-2.2,0.2-3.3,0.4c-1.8,0.1-3.4-0.4-4.9-1.3c-0.9-0.9-1.1-2-0.7-3.2c0.2-0.5,0.6-0.9,1.1-1.2c3.2-0.4,6.6-0.4,9.7-1.3
		c0.7-0.2,1.4-0.4,2.1-0.5c2.8-0.6,5.6-1.2,8.5-1.9c0.7-0.1,1.5-0.1,2.2-0.1c0.5,0.1,1,0.2,1.4,0.4
		C117.9,111.1,118.1,111.5,118.3,112z"/>
	<path class="st0" d="M133.3,110.8c2.3,3.6,5.4,0.3,8,1c0.6,0.7,0.7,1.4,0.3,2.2c-0.3,0.4-0.8,0.8-1.3,1c-2.5,0.3-5,0.8-7.1-1.2
		c-1.3-0.7-2.7-1.3-4-2C130.5,111,131.9,110.8,133.3,110.8z"/>
	<path class="st0" d="M117.3,113.8c0.3-0.3,0.7-0.7,1-1c1.7,0,3.4,0,5,0c1.1-0.6,2.1-0.8,2,1c-1,0.3-2,0.7-3,1
		c-0.6,2.4-2.5,1.9-4.2,1.9c-0.5-0.2-0.9-0.5-1.2-0.9C116.6,115.1,116.7,114.4,117.3,113.8z"/>
	<path class="st0" d="M125.3,113.8c-0.7-0.3-1.3-0.7-2-1c1.2-0.8,2.6-1,4-1C126.9,112.8,126.3,113.5,125.3,113.8z"/>
	<path class="st0" d="M165.4,117.6c-0.9,0.1-1.9,0.2-2.8,0.3c-1.5,1.2-3.2,1.5-5,1.3c-2.1-0.5-4.1-1.4-6.2-1.9
		c-1.8-0.4-3.1-1.3-2.3-3.5c1.1-0.7,2.2-0.7,3.2,0c3.8-0.8,7.1,3.7,11,1c0.7-0.5,1.3-0.6,2,0c0,0.3,0,0.6,0,1
		C165.9,116.4,165.8,117,165.4,117.6z"/>
	<path class="st0" d="M169.3,111.8c-1.3,0-2.7,0-4,0c0,0,0,0,0,0c-0.6-0.7-0.6-1.3,0-2c2.2-0.2,4.2-0.7,6-2c0.7,0,1.3,0,2,0
		c2.7-0.8,5.3-0.8,8,0c0,0.7,0,1.3,0,2c-2,1.7-4.5,0.8-6.7,1C172.8,110.9,170.9,110.6,169.3,111.8z"/>
	<path class="st0" d="M152.3,113.8c-1,0-2,0-3,0c-2.7,1.8-5.3,3.2-8,0c0-0.7,0-1.3,0-2c3.9-2.4,7.4,0.1,11,1
		C152.3,113.2,152.3,113.5,152.3,113.8z"/>
	<path class="st0" d="M165.3,114.8c-0.7,0-1.3,0-2,0c-1.2-0.3-2.4-0.6-4.3-1c2.4-1.4,4.4-0.8,6.3-1
		C165.3,113.5,165.3,114.2,165.3,114.8z"/>
	<path class="st0" d="M165.3,109.8c0,0.7,0,1.3,0,2c-1.5-0.1-3.2,0.3-4.6-1C162.1,109.2,163.8,110.1,165.3,109.8z"/>
	<path class="st0" d="M169.3,111.8c3.5-3.5,8-1.4,12-2c0,0.3,0,0.7,0,1c0,0.3,0,0.7,0,1c-2.7,0-5.3,0-8,0
		C172,111.8,170.6,111.8,169.3,111.8z"/>
	<path class="st0" d="M181.3,107.8c-2.7,0-5.3,0-8,0c0-0.3,0-0.7,0-1C176,107,178.8,106.3,181.3,107.8z"/>
	<path class="st0" d="M91.2,144.6c-2.3,0.8-4.6,1.6-6.9,2.4c0-0.4,0-0.8-0.1-1.2c-0.7-2.2,0.9-3.3,2.1-4.7c5.3-2,10.2-4.8,15.4-7
		c1.3-0.3,2.1-1.4,3.4-1.7c1.6-0.4,3.1-1.2,4.9-0.9c1.3,0.6,2.8,0.9,3.4,2.4c-3.3,1.6-6.7,3.3-10,4.9c-3,0.9-5.9,2-8.4,3.9
		C94.2,144.4,92.5,144.1,91.2,144.6z"/>
	<path class="st0" d="M87.3,142.8c-1,1-2,2-3,3c-1-0.3-2-0.7-3-1c-0.3-0.7-0.7-1.4-1-2C82.6,142.4,85,138.7,87.3,142.8z"/>
	<path class="st0" d="M113.4,133.9c-1.4,0-2.7-0.1-4.1-0.1c-0.7-3.2,0.6-5.7,3.3-6.8c2.2-0.9,4.5,0,5.7,2.5c0.2,1.5-0.7,2.5-1.7,3.3
		C115.6,133.1,114.5,133.5,113.4,133.9z"/>
	<path class="st0" d="M116.6,132.8c0.3-0.9,0.5-1.9,0.8-2.8c0.4-0.5,0.8-0.9,1.3-1.2c1.8-0.6,3.4-0.7,4.7,1
		c-0.8,0.6-1.5,1.2-2.3,1.9C119.6,132,118.1,132.4,116.6,132.8z"/>
	<path class="st0" d="M132.5,127c-1.7,0.6-3.4,1.3-5.2,1.9c-0.3,0-0.7-0.1-1-0.1c-1.4,0.8-2.8,0.8-4.1-0.1c-0.5-1.6,0.6-2.1,1.7-2.7
		c0.4-0.2,0.8-0.4,1.2-0.6c1-0.4,2-0.9,3-1.3c0.6-0.3,1-0.8,1.4-1.3c0.5-2.1,2-2.9,4-3c0.4-0.4,0.3-0.9,0.6-1.3
		c0.5-0.8,0.3-1.5-0.6-1.7c0-0.3,0-0.7,0-1c2.3-2.2,5.7,0.1,8-2c0,0,0,0,0,0c2.7,0,5.3,0,8,0c1.7,3.2,6,1.3,8,4
		c-0.7,1.5-2.1,1.4-3.4,1.5c-1.3,0.1-2.5,0.2-3.7,0.5c-3.7,1.8-7.3,3.9-11.6,3.5c-1,0-2,0.3-2.9,0.8c-0.9,0.5-1.8,0.9-2.3,1.9
		C133.1,126.4,132.8,126.7,132.5,127z"/>
	<path class="st0" d="M122.3,127.8c1.2,0.9,2.6,1,4,1c0,0.3-0.1,0.6-0.1,0.9c-0.9,0-1.8,0.1-2.7,0.1c-1.7,0-3.4,0-5.1,0.1
		c-0.6-1.1-2-2-1-3.5c0.8-0.8,1.9-1,3-0.8C121.4,125.9,122.2,126.6,122.3,127.8z"/>
	<path class="st0" d="M165.4,117.6c0-0.6,0-1.2-0.1-1.8c1.7,0,3.5,0.1,5.2,0.1c-0.1,0.3-0.2,0.5-0.3,0.8c-1,0.3-2,0.7-3,1
		c-0.6,0.7-1.3,0.7-2,0.3L165.4,117.6z"/>
	<path class="st0" d="M162,118.7c-4.1,0.7-8.6,0.6-11.8,4c-4.5,1.6-8.9,3.6-13.9,3.2c-1,0.1-1.9,0.2-2.9,0.2
		c0.3-1.1,0.6-2.2,0.9-3.3c1-1.6,2.5-1.5,4-1c3.4-0.6,7.2-0.4,9.2-4.3c0.1-0.2,1.2,0.1,1.8,0.2c1.3,1.6,2.6,1,4,0.1c1.3,0,2.7,0,4,0
		c1.7,0,3.5,0.1,5.2,0.1C162.4,118.2,162.2,118.4,162,118.7z"/>
	<path class="st0" d="M117.3,126.9c0.3,1,0.7,2,1,3c-0.3,0-0.6,0.1-0.9,0.1c-2.1-1.3-4-2.5-5.3,1.1c-0.4,1.1-1.8,1.8-2.8,2.7
		c-1.3,0.3-2.6,0.7-4,1c-0.9,0.8-2.4-0.5-3,1c-5.1,2.1-9.4,5.9-15,7c-2.3-0.9-4.7-0.3-7,0c2.1-2.6,2.1-4.7-1.8-4.9
		c-3.3-0.1-4.7-3-7.2-4.1c0.3-0.7,0.7-1.3,1-2c0.3-0.4,0.7-0.7,1.2-0.8c1.4-0.2,2.3,0.6,3,1.7c1.6,3.6,4.6,1.2,6.9,1.6
		c0.9-0.2,2.2,0.1,2.5-1.1c0.2-0.9-1-1.2-1.4-1.9c-1.1-3.5,1.1-3.8,3.7-4.1c5.3-0.7,5.6-1.3,3.3-6.2c0-1,0.2-2,0.8-2.9
		c0.2-0.2,0.4-0.3,0.6-0.4c1.7,0.1,3.4,0.1,5.1,0.2c1,1.1,2,1.1,3,0c2.9-2.5,6.9-1.3,10-3c2.2-0.8,4.1-0.1,6,1l0,0
		c0.6,0.7,0.8,1.4,0.6,2.3c0.2,1.7,1.6,3.1,1.1,4.9C118.9,124.5,118.5,125.9,117.3,126.9z"/>
	<path class="st0" d="M73.3,131.8l-0.5,0c0,0-0.5,0-0.5,0c-1,0-2,0-3,0c0-1.3,0-2.7,0-4c0,0,0,0,0,0c2.1-1.8,4.1-2.2,6.1,0.1
		C76.4,130.1,75.1,131.1,73.3,131.8z"/>
	<path class="st0" d="M75.3,128.8c-2-0.3-4-0.7-6-1c0-0.7,0-1.3,0-2c3.6-1.2,7.2-2,11-2c0.3,0.4,0.5,0.9,0.5,1.4
		C79.3,127,78.7,130,75.3,128.8z"/>
	<path class="st0" d="M84.3,119.6c0.6-0.3,1.3-0.6,1.9-0.9c1.3-1.9,2.9-2.7,5.1-1.2c1.5,5.1-3.5,4-5.5,5.7c-1.9,0.4-3.7,0.3-5.5-0.3
		c-0.3-0.4-0.7-0.8-1-1.2c0-2,2.1-1.4,3-2.3C83,119.1,83.6,119.3,84.3,119.6z"/>
	<path class="st0" d="M80.2,122.8c1.5-1,3.3-1,5-1c0.7,0.8,0.8,1.6,0.4,2.6c-1.6,2.2-3.4,2.5-5.4,0.4c0-0.3,0-0.6,0-1
		C80.3,123.5,80.3,123.2,80.2,122.8z"/>
	<path class="st0" d="M117.3,122.8c0-1.7,0-3.3,0-5c0.3-0.4,0.7-0.3,1,0c3,3,6.9,4.2,11,5c1.5,1.6,1.6,2.8-1,3c-1.5-1.1-2.1,0.3-3,1
		l0,0c-1.4,0.4-2.7-0.1-4-0.4C119.5,125.7,118.1,124.6,117.3,122.8z"/>
	<path class="st0" d="M118.3,117.8c-0.3,0-0.7,0-1,0c0-0.7,0-1.3,0-2c1.7-0.3,3.3-0.7,5-1c1.3,0.3,2.7,0.8,2.2,2.5
		c-0.4,1.7-1.9,0.6-2.9,0.6C120.5,118,119.4,117.9,118.3,117.8z"/>
	<path class="st0" d="M141.3,113.8c-2,3.2-5.3,1.6-8,2c0-0.7,0-1.3,0-2C136,113.8,138.6,113.8,141.3,113.8z"/>
	<path class="st0" d="M133.3,116.8c1.9,0,3.9,0,5.8,0c-2,1.1-4.3,1.2-5.8,3c0-0.7,0-1.3,0-2C132.6,117.5,132.6,117.1,133.3,116.8
		L133.3,116.8z"/>
	<path class="st0" d="M133.3,116.8c0,0.3,0,0.7,0,1c-1.3,0-2.5,0-3.8,0c0-0.3,0-0.5,0-0.8C130.7,117,132,116.9,133.3,116.8z"/>
	<path class="st0" d="M117.3,115.8c-2-0.3-4-0.6-6-1c1.8-1.2,3.9-0.9,6-1C117.3,114.5,117.3,115.1,117.3,115.8z"/>
	<path class="st0" d="M101.3,117.8c-0.2,1,0.5,2.6-1.2,2.6c-1.3,0-1.5-1.5-1.8-2.6C99.3,117.8,100.3,117.8,101.3,117.8z"/>
	<path class="st0" d="M102.3,135.8c0.1-3.1,1.9-1.2,3-1C104.3,135.2,103.3,135.5,102.3,135.8z"/>
	<path class="st0" d="M138.3,121.8c-1.2,0.9-2.6,1-4,1C135.1,119.7,135.8,119.5,138.3,121.8z"/>
	<path class="st0" d="M125.3,126.8c0.2-0.9,0.2-2,1.3-2.3c0.9-0.2,1.3,0.6,1.7,1.3C127.3,126.1,126.3,126.5,125.3,126.8z"/>
	<path class="st0" d="M121.3,125.8c1.3,0.3,2.7,0.7,4,1c-1,0.3-2,0.7-3,1c-0.7-0.3-1.3-0.7-2-1C120.1,125.9,120.3,125.5,121.3,125.8
		z"/>
	<path class="st0" d="M153.3,117.8c-2.5,2.3-2.7,2.3-4-0.1C150.6,117.8,151.9,117.8,153.3,117.8z"/>
	<path class="st0" d="M121.3,125.8c-0.3,0.3-0.7,0.7-1,1c-1,0-2,0-3,0c0-1.3,0-2.7,0-4C118.8,123.6,120.3,124.3,121.3,125.8z"/>
	<path class="st0" d="M93.3,120.8c2.3,1.5,3.4,3.9,2.7,6.3c-0.9,2.9-3.8,1.8-6,1.8c-1.8,0-3.7,0-4.7,2c-1.9,3.8-4,2.8-6.2,0.2
		c-0.6-2.6,0-4.3,3.1-4.6c2.9-0.3,4.5-2.8,6.7-4.4C90.5,121.9,91.7,120.8,93.3,120.8z"/>
	<path class="st0" d="M80.3,129.8c1.3,2.4,3,2.1,5,1c0.2,0,0.3,0,0.5,0c2.2,0.3,4.7-0.9,6.5,1.2c0.5,0.5-0.1,1.4-0.8,1.5
		c-2.9,0.4-4.3,5.9-8.3,2.3c-1-1.2-2.3-1-3.6-0.7c-1.6,0.3-2.9-0.1-3.4-1.8C76.1,130.4,77.3,129,80.3,129.8z"/>
	<path class="st0" d="M80.3,129.8c-1.7,0.8-2.9,2-3,4c-0.7,0.5-1.3,0.6-2,0c-0.7-0.7-1.3-1.3-2-2c0.7-1,1.3-2,2-3
		c1.7-1.3,3.3-2.7,5-4c1.7,0,3.4-0.2,5-1c2-1.7,4-2.4,6,0C88.1,126.7,83.2,126.3,80.3,129.8z"/>
	<path class="st0" d="M91.3,123.8c-2,0-4,0-6,0c0-0.7,0-1.3,0-2c1.8-1.5,4.4-1.9,6-3.8c0.6-0.1,1.3-0.2,1.9-0.3c0,1,0.1,2.1,0.1,3.1
		C93.2,122.2,92.7,123.3,91.3,123.8z"/>
	<path class="st0" d="M75.3,133.8c0.7,0,1.3,0,2,0c1.8,0,3.5,0,5.3,0.1c1.5,0.1,1.5,0.9,0.7,1.9C80.5,135.7,76.9,138.6,75.3,133.8z"
		/>
	<path class="st0" d="M95.2,137.8c-0.7,0.2-1.3,0.1-1.4-0.8c0-0.9,0.2-1.7,1.3-1.5c0.6,0.1,1.5,0.5,1.6,0.8
		C96.9,137.3,95.9,137.4,95.2,137.8z"/>
</g>
</svg>
